service_id,date,exception_type
2,20150714,2
2,20150815,2
3,20150525,2
1,20150714,2
6,20150815,1
6,20150714,1
0,20150822,1
0,20150829,1
5,20150525,2
11,20150525,2
12,20150504,1
12,20150511,1
12,20150518,1
8,20150513,1
8,20150507,1
7,20150525,1
27,20150525,2
16,20150525,2
10,20150525,2
23,20150714,2
23,20150815,2
21,20150525,2
26,20150714,2
28,20150526,1
28,20150525,2
29,20150525,2
31,20150714,2
31,20150815,2
36,20150815,2
33,20150714,2
33,20150815,2
40,20150525,2
38,20150514,2
38,20150508,2
41,20150525,1
43,20150714,2
34,20150714,2
