from_stop_id,to_stop_id,transfer_type,min_transfer_time
StopPoint:C44Nav2689,StopPoint:C44Nav2688,0,
StopPoint:C44Nav2688,StopPoint:C44Nav2689,0,
StopPoint:C4408765N,StopPoint:C4408765O,0,
StopPoint:C4408765O,StopPoint:C4408765N,0,
StopPoint:C4408746O,StopPoint:C4408746N,0,
StopPoint:C4408746N,StopPoint:C4408746O,0,
StopPoint:C4408724N,StopPoint:C4408724O,1,
StopPoint:C4408724O,StopPoint:C4408724N,1,
StopPoint:C44Nav2613,StopPoint:C44Nav2612,0,
StopPoint:C44Nav2612,StopPoint:C44Nav2613,0,
StopPoint:C44Nav2614,StopPoint:C44Nav2665,0,
StopPoint:C44Nav2665,StopPoint:C44Nav2614,0,
StopPoint:C44Nav2616,StopPoint:C44Nav2663,0,
StopPoint:C44Nav2663,StopPoint:C44Nav2616,0,
StopPoint:C44Nav2664,StopPoint:C44Nav2662,0,
StopPoint:C44Nav2662,StopPoint:C44Nav2664,0,
StopPoint:C44Nav2346,StopPoint:C44Nav2337,0,
StopPoint:C44Nav2337,StopPoint:C44Nav2346,0,
StopPoint:C4422733O,StopPoint:C4422733N,0,
StopPoint:C4422733N,StopPoint:C4422733O,0,
StopPoint:C4405045N,StopPoint:C4405045O,0,
StopPoint:C4405045O,StopPoint:C4405045N,0,
StopPoint:C4425511N,StopPoint:C44Nav1877,0,
StopPoint:C44Nav1877,StopPoint:C4425511N,0,
StopPoint:C4424034N,StopPoint:C4424034O,0,
StopPoint:C4424034O,StopPoint:C4424034N,0,
StopPoint:C44Nav2567,StopPoint:C44Nav2568,0,
StopPoint:C44Nav2568,StopPoint:C44Nav2567,0,
StopPoint:C4410472N,StopPoint:C4410472O,0,
StopPoint:C4410472O,StopPoint:C4410472N,0,
StopPoint:C4410494N,StopPoint:C4410494O,0,
StopPoint:C4410494O,StopPoint:C4410494N,0,
StopPoint:C4409747N,StopPoint:C4409747O,0,
StopPoint:C4409747O,StopPoint:C4409747N,0,
StopPoint:C4425499N,StopPoint:C4424589O,0,
StopPoint:C4424589O,StopPoint:C4425499N,0,
StopPoint:C44Nav2593,StopPoint:C44Nav2586,0,
StopPoint:C44Nav2586,StopPoint:C44Nav2593,0,
StopPoint:C4410397O,StopPoint:C4410397N,0,
StopPoint:C4410397N,StopPoint:C4410397O,0,
StopPoint:C4410298N,StopPoint:C4410298O,0,
StopPoint:C4410298O,StopPoint:C4410298N,0,
StopPoint:C4410394O,StopPoint:C4410394N,0,
StopPoint:C4410394N,StopPoint:C4410394O,0,
StopPoint:C4425281O,StopPoint:C4425281N,0,
StopPoint:C4425281N,StopPoint:C4425281O,0,
StopPoint:C4424893O,StopPoint:C4424893N,0,
StopPoint:C4424893N,StopPoint:C4424893O,0,
StopPoint:C4410406O,StopPoint:C4410406N,0,
StopPoint:C4410406N,StopPoint:C4410406O,0,
StopPoint:C4410330N,StopPoint:C4410330O,0,
StopPoint:C4410330O,StopPoint:C4410330N,0,
StopPoint:C4410401O,StopPoint:C4410401N,0,
StopPoint:C4410401N,StopPoint:C4410401O,0,
StopPoint:C4410403O,StopPoint:C4410403N,0,
StopPoint:C4410403N,StopPoint:C4410403O,0,
StopPoint:C44Nav2604,StopPoint:C44Nav2603,0,
StopPoint:C44Nav2603,StopPoint:C44Nav2604,0,
StopPoint:C44Nav2566,StopPoint:C44Nav2563,0,
StopPoint:C44Nav2563,StopPoint:C44Nav2566,0,
StopPoint:C445345N,StopPoint:C445345O,0,
StopPoint:C445345O,StopPoint:C445345N,0,
StopPoint:C44Nav2599,StopPoint:C44Nav2594,0,
StopPoint:C44Nav2594,StopPoint:C44Nav2599,0,
StopPoint:C4400293O,StopPoint:C4400293N,0,
StopPoint:C4400293N,StopPoint:C4400293O,0,
StopPoint:C44Nav2537,StopPoint:C44Nav2548,0,
StopPoint:C44Nav2548,StopPoint:C44Nav2537,0,
StopPoint:C44Nav714,StopPoint:C44Nav707,0,
StopPoint:C44Nav707,StopPoint:C44Nav714,0,
StopPoint:C44Nav2549,StopPoint:C44Nav2536,0,
StopPoint:C44Nav2536,StopPoint:C44Nav2549,0,
StopPoint:C44Nav2538,StopPoint:C44Nav2547,0,
StopPoint:C44Nav2547,StopPoint:C44Nav2538,0,
StopPoint:C44Nav2595,StopPoint:C44Nav2598,0,
StopPoint:C44Nav2598,StopPoint:C44Nav2595,0,
StopPoint:C44Nav2552,StopPoint:C44Nav2533,0,
StopPoint:C44Nav2533,StopPoint:C44Nav2552,0,
StopPoint:C4408823N,StopPoint:C4408823O,0,
StopPoint:C4408823O,StopPoint:C4408823N,0,
StopPoint:C4408840N,StopPoint:C4408840O,0,
StopPoint:C4408840O,StopPoint:C4408840N,0,
StopPoint:C448826O,StopPoint:C448826N,0,
StopPoint:C448826N,StopPoint:C448826O,0,
StopPoint:C4408836O,StopPoint:C4408836N,0,
StopPoint:C4408836N,StopPoint:C4408836O,0,
StopPoint:C44Nav2396,StopPoint:C44Nav2397,0,
StopPoint:C44Nav2397,StopPoint:C44Nav2396,0,
StopPoint:C4408697O,StopPoint:C4408697N,0,
StopPoint:C4408697N,StopPoint:C4408697O,0,
StopPoint:C448715O,StopPoint:C448715N,0,
StopPoint:C448715N,StopPoint:C448715O,0,
StopPoint:C44Nav2700,StopPoint:C44Nav2696,0,
StopPoint:C44Nav2696,StopPoint:C44Nav2700,0,
StopPoint:C44Nav2365,StopPoint:C44Nav2316,0,
StopPoint:C44Nav2316,StopPoint:C44Nav2365,0,
StopPoint:C44Nav2223,StopPoint:C44Nav2199,0,
StopPoint:C44Nav2199,StopPoint:C44Nav2223,0,
StopPoint:C4414495O,StopPoint:C4414495N,0,
StopPoint:C4414495N,StopPoint:C4414495O,0,
StopPoint:C4414717O,StopPoint:C4414717N,0,
StopPoint:C4414717N,StopPoint:C4414717O,0,
StopPoint:C4402457N,StopPoint:C4402457O,0,
StopPoint:C4402457O,StopPoint:C4402457N,0,
StopPoint:C44Nav2238,StopPoint:C44Nav2300,0,
StopPoint:C44Nav2300,StopPoint:C44Nav2238,0,
StopPoint:C4414719O,StopPoint:C4414719N,0,
StopPoint:C4414719N,StopPoint:C4414719O,0,
StopPoint:C4414456O,StopPoint:C4414456N,0,
StopPoint:C4414456N,StopPoint:C4414456O,0,
StopPoint:C4420078N,StopPoint:C4420078O,0,
StopPoint:C4420078O,StopPoint:C4420078N,0,
StopPoint:C4404508O,StopPoint:C4404508N,1,
StopPoint:C4404508N,StopPoint:C4404508O,1,
StopPoint:C4424218O,StopPoint:C4424218N,0,
StopPoint:C4424218N,StopPoint:C4424218O,0,
StopPoint:C442590N,StopPoint:C4411520N,0,
StopPoint:C4411520N,StopPoint:C442590N,0,
StopPoint:C4406880O,StopPoint:C4406880N,0,
StopPoint:C4406880N,StopPoint:C4406880O,0,
StopPoint:C444918O,StopPoint:C4425509N,0,
StopPoint:C4425509N,StopPoint:C444918O,0,
StopPoint:C4425510N,StopPoint:C4424560O,0,
StopPoint:C4424560O,StopPoint:C4425510N,0,
StopPoint:C4414241N,StopPoint:C4414241O,0,
StopPoint:C4414241O,StopPoint:C4414241N,0,
StopPoint:C44Nav1674,StopPoint:C44Nav1956,0,
StopPoint:C44Nav1956,StopPoint:C44Nav1674,0,
StopPoint:C4406578N,StopPoint:C4406578O,0,
StopPoint:C4406578O,StopPoint:C4406578N,0,
StopPoint:C4400727N,StopPoint:C4400727O,0,
StopPoint:C4400727O,StopPoint:C4400727N,0,
StopPoint:C4422197N,StopPoint:C4422197O,0,
StopPoint:C4422197O,StopPoint:C4422197N,0,
StopPoint:C44Nav1675,StopPoint:C44Nav1955,0,
StopPoint:C44Nav1955,StopPoint:C44Nav1675,0,
StopPoint:C4412625N,StopPoint:C4412625O,0,
StopPoint:C4412625O,StopPoint:C4412625N,0,
StopPoint:C4412630N,StopPoint:C4412630O,0,
StopPoint:C4412630O,StopPoint:C4412630N,0,
StopPoint:C4422275N,StopPoint:C4422275O,0,
StopPoint:C4422275O,StopPoint:C4422275N,0,
StopPoint:C4412382N,StopPoint:C4412382O,0,
StopPoint:C4412382O,StopPoint:C4412382N,0,
StopPoint:C44Nav2699,StopPoint:C44Nav2702,0,
StopPoint:C44Nav2702,StopPoint:C44Nav2699,0,
StopPoint:C4424816N,StopPoint:C4424816O,0,
StopPoint:C4424816O,StopPoint:C4424816N,0,
StopPoint:C4412369O,StopPoint:C4412369N,0,
StopPoint:C4412369N,StopPoint:C4412369O,0,
StopPoint:C4412387O,StopPoint:C4412387N,0,
StopPoint:C4412387N,StopPoint:C4412387O,0,
StopPoint:C4412131N,StopPoint:C4412131O,0,
StopPoint:C4412131O,StopPoint:C4412131N,0,
StopPoint:C4400961N,StopPoint:C4400961O,0,
StopPoint:C4400961O,StopPoint:C4400961N,0,
StopPoint:C44955N,StopPoint:C44955O,0,
StopPoint:C44955O,StopPoint:C44955N,0,
StopPoint:C4424938O,StopPoint:C4424938N,0,
StopPoint:C4424938N,StopPoint:C4424938O,0,
StopPoint:C4400962O,StopPoint:C4400962N,0,
StopPoint:C4400962N,StopPoint:C4400962O,0,
StopPoint:C44Nav2584,StopPoint:C44Nav2582,0,
StopPoint:C44Nav2582,StopPoint:C44Nav2584,0,
StopPoint:C4409522N,StopPoint:C4409522O,0,
StopPoint:C4409522O,StopPoint:C4409522N,0,
StopPoint:C4409527N,StopPoint:C4409527O,0,
StopPoint:C4409527O,StopPoint:C4409527N,0,
StopPoint:C44Nav2656,StopPoint:C44Nav2636,0,
StopPoint:C44Nav2636,StopPoint:C44Nav2656,0,
StopPoint:C4425097O,StopPoint:C4425097N,0,
StopPoint:C4425097N,StopPoint:C4425097O,0,
StopPoint:C44Nav2724,StopPoint:C44Nav2721,0,
StopPoint:C44Nav2721,StopPoint:C44Nav2724,0,
StopPoint:C4409629O,StopPoint:C4409629N,0,
StopPoint:C4409629N,StopPoint:C4409629O,0,
StopPoint:C44Nav2228,StopPoint:C44Nav2221,0,
StopPoint:C44Nav2221,StopPoint:C44Nav2228,0,
StopPoint:C4425502N,StopPoint:C449397O,0,
StopPoint:C449397O,StopPoint:C4425502N,0,
StopPoint:C4424860O,StopPoint:C4425500N,0,
StopPoint:C4425500N,StopPoint:C4424860O,0,
StopPoint:C4411399O,StopPoint:C4411399N,0,
StopPoint:C4411399N,StopPoint:C4411399O,0,
StopPoint:C44Nav1677,StopPoint:C44Nav1953,0,
StopPoint:C44Nav1953,StopPoint:C44Nav1677,0,
StopPoint:C44Nav2434,StopPoint:C44Nav2435,0,
StopPoint:C44Nav2435,StopPoint:C44Nav2434,0,
StopPoint:C44Nav2409,StopPoint:C44Nav2410,0,
StopPoint:C44Nav2410,StopPoint:C44Nav2409,0,
StopPoint:C444135O,StopPoint:C444135N,0,
StopPoint:C444135N,StopPoint:C444135O,0,
StopPoint:C449211O,StopPoint:C449211N,0,
StopPoint:C449211N,StopPoint:C449211O,0,
StopPoint:C4422234O,StopPoint:C4422234N,0,
StopPoint:C4422234N,StopPoint:C4422234O,0,
StopPoint:C4408781N,StopPoint:C4408781O,0,
StopPoint:C4408781O,StopPoint:C4408781N,0,
StopPoint:C4422131N,StopPoint:C4422131O,0,
StopPoint:C4422131O,StopPoint:C4422131N,0,
StopPoint:C44Nav2407,StopPoint:C44Nav2408,0,
StopPoint:C44Nav2408,StopPoint:C44Nav2407,0,
StopPoint:C4405725O,StopPoint:C4405725N,0,
StopPoint:C4405725N,StopPoint:C4405725O,0,
StopPoint:C4415784N,StopPoint:C4422098O,0,
StopPoint:C4422098O,StopPoint:C4415784N,0,
StopPoint:C4422767N,StopPoint:C4422767O,0,
StopPoint:C4422767O,StopPoint:C4422767N,0,
StopPoint:C4404986O,StopPoint:C4404986N,0,
StopPoint:C4404986N,StopPoint:C4404986O,0,
StopPoint:C4406953N,StopPoint:C4406953O,0,
StopPoint:C4406953O,StopPoint:C4406953N,0,
StopPoint:C4423038O,StopPoint:C4423038N,0,
StopPoint:C4423038N,StopPoint:C4423038O,0,
StopPoint:C446948N,StopPoint:C446948O,0,
StopPoint:C446948O,StopPoint:C446948N,0,
StopPoint:C446945O,StopPoint:C446945N,0,
StopPoint:C446945N,StopPoint:C446945O,0,
StopPoint:C44Nav2242,StopPoint:C44Nav2239,0,
StopPoint:C44Nav2239,StopPoint:C44Nav2242,0,
StopPoint:C4424891O,StopPoint:C4424891N,0,
StopPoint:C4424891N,StopPoint:C4424891O,0,
StopPoint:C44Nav2378,StopPoint:C44Nav2379,0,
StopPoint:C44Nav2379,StopPoint:C44Nav2378,0,
StopPoint:C4422148O,StopPoint:C4422148N,0,
StopPoint:C4422148N,StopPoint:C4422148O,0,
StopPoint:C4409989O,StopPoint:C4409989N,1,
StopPoint:C4409989N,StopPoint:C4409989O,1,
StopPoint:C4422981N,StopPoint:C4422981O,0,
StopPoint:C4422981O,StopPoint:C4422981N,0,
StopPoint:C4422116N,StopPoint:C4422116O,0,
StopPoint:C4422116O,StopPoint:C4422116N,0,
StopPoint:C44Nav2237,StopPoint:C44Nav2236,0,
StopPoint:C44Nav2236,StopPoint:C44Nav2237,0,
StopPoint:C4422457N,StopPoint:C44Nav2178,0,
StopPoint:C44Nav2178,StopPoint:C4422457N,0,
StopPoint:C44Nav2215,StopPoint:C44Nav2197,0,
StopPoint:C44Nav2197,StopPoint:C44Nav2215,0,
StopPoint:C4411704O,StopPoint:C4411704N,0,
StopPoint:C4411704N,StopPoint:C4411704O,0,
StopPoint:C4424791N,StopPoint:C4424791O,0,
StopPoint:C4424791O,StopPoint:C4424791N,0,
StopPoint:C444872O,StopPoint:C44Nav1633,0,
StopPoint:C44Nav1633,StopPoint:C444872O,0,
StopPoint:C4411632N,StopPoint:C4411632O,0,
StopPoint:C4411632O,StopPoint:C4411632N,0,
StopPoint:C4411612N,StopPoint:C4411612O,0,
StopPoint:C4411612O,StopPoint:C4411612N,0,
StopPoint:C4424377N,StopPoint:C4424377O,0,
StopPoint:C4424377O,StopPoint:C4424377N,0,
StopPoint:C4405568O,StopPoint:C4405568N,0,
StopPoint:C4405568N,StopPoint:C4405568O,0,
StopPoint:C445708N,StopPoint:C445708O,0,
StopPoint:C445708O,StopPoint:C445708N,0,
StopPoint:C4423263N,StopPoint:C4423263O,0,
StopPoint:C4423263O,StopPoint:C4423263N,0,
StopPoint:C446006O,StopPoint:C446006N,0,
StopPoint:C446006N,StopPoint:C446006O,0,
StopPoint:C4405999N,StopPoint:C4405999O,0,
StopPoint:C4405999O,StopPoint:C4405999N,0,
StopPoint:C4406018O,StopPoint:C4406018N,0,
StopPoint:C4406018N,StopPoint:C4406018O,0,
StopPoint:C4425484O,StopPoint:C446002O,0,
StopPoint:C446002O,StopPoint:C4425484O,0,
StopPoint:C4423344O,StopPoint:C4423344N,0,
StopPoint:C4423344N,StopPoint:C4423344O,0,
StopPoint:C4411955O,StopPoint:C4411955N,0,
StopPoint:C4411955N,StopPoint:C4411955O,0,
StopPoint:C44Nav2214,StopPoint:C44Nav2216,0,
StopPoint:C44Nav2216,StopPoint:C44Nav2214,0,
StopPoint:C4424788O,StopPoint:C4424788N,0,
StopPoint:C4424788N,StopPoint:C4424788O,0,
StopPoint:C4423072O,StopPoint:C4423072N,0,
StopPoint:C4423072N,StopPoint:C4423072O,0,
StopPoint:C44866O,StopPoint:C4425484N,0,
StopPoint:C4425484N,StopPoint:C44866O,0,
StopPoint:C4400898O,StopPoint:C4400898N,0,
StopPoint:C4400898N,StopPoint:C4400898O,0,
StopPoint:C44Nav1815,StopPoint:C44Nav1785,0,
StopPoint:C44Nav1785,StopPoint:C44Nav1815,0,
StopPoint:C44932O,StopPoint:C44932N,0,
StopPoint:C44932N,StopPoint:C44932O,0,
StopPoint:C4410410O,StopPoint:C4410410N,0,
StopPoint:C4410410N,StopPoint:C4410410O,0,
StopPoint:C4410411O,StopPoint:C4410411N,0,
StopPoint:C4410411N,StopPoint:C4410411O,0,
StopPoint:C4410412O,StopPoint:C4410412N,0,
StopPoint:C4410412N,StopPoint:C4410412O,0,
StopPoint:C4400052O,StopPoint:C4400052N,0,
StopPoint:C4400052N,StopPoint:C4400052O,0,
StopPoint:C4400156N,StopPoint:C4400156O,0,
StopPoint:C4400156O,StopPoint:C4400156N,0,
StopPoint:C4415733O,StopPoint:C4415733N,0,
StopPoint:C4415733N,StopPoint:C4415733O,0,
StopPoint:C4400140O,StopPoint:C4400140N,0,
StopPoint:C4400140N,StopPoint:C4400140O,0,
StopPoint:C4425487N,StopPoint:C4410600N,0,
StopPoint:C4410600N,StopPoint:C4425487N,0,
StopPoint:C44Nav2540,StopPoint:C44Nav2545,0,
StopPoint:C44Nav2545,StopPoint:C44Nav2540,0,
StopPoint:C4424764N,StopPoint:C4424764O,0,
StopPoint:C4424764O,StopPoint:C4424764N,0,
StopPoint:C4402550O,StopPoint:C4402550N,0,
StopPoint:C4402550N,StopPoint:C4402550O,0,
StopPoint:C44Nav1467,StopPoint:C44Nav2177,0,
StopPoint:C44Nav2177,StopPoint:C44Nav1467,0,
StopPoint:C44Nav2546,StopPoint:C44Nav2539,0,
StopPoint:C44Nav2539,StopPoint:C44Nav2546,0,
StopPoint:C44Nav2596,StopPoint:C44Nav2597,0,
StopPoint:C44Nav2597,StopPoint:C44Nav2596,0,
StopPoint:C4400344N,StopPoint:C4400344O,0,
StopPoint:C4400344O,StopPoint:C4400344N,0,
StopPoint:C44442O,StopPoint:C44442N,0,
StopPoint:C44442N,StopPoint:C44442O,0,
StopPoint:C4424776O,StopPoint:C4424776N,0,
StopPoint:C4424776N,StopPoint:C4424776O,0,
StopPoint:C44440O,StopPoint:C44440N,0,
StopPoint:C44440N,StopPoint:C44440O,0,
StopPoint:C44Nav2729,StopPoint:C44Nav2728,0,
StopPoint:C44Nav2728,StopPoint:C44Nav2729,0,
StopPoint:C4425505O,StopPoint:C4410695O,0,
StopPoint:C4410695O,StopPoint:C4425505O,0,
StopPoint:C4422534O,StopPoint:C4422534N,0,
StopPoint:C4422534N,StopPoint:C4422534O,0,
StopPoint:C4410704O,StopPoint:C4410704N,0,
StopPoint:C4410704N,StopPoint:C4410704O,0,
StopPoint:C44Nav2422,StopPoint:C44Nav2420,0,
StopPoint:C44Nav2420,StopPoint:C44Nav2422,0,
StopPoint:C4424911O,StopPoint:C4424911N,0,
StopPoint:C4424911N,StopPoint:C4424911O,0,
StopPoint:C4410678N,StopPoint:C4410678O,2,312
StopPoint:C4410678O,StopPoint:C4410678N,2,312
StopPoint:C4425387N,StopPoint:C4425387O,0,
StopPoint:C4425387O,StopPoint:C4425387N,0,
StopPoint:C4410701N,StopPoint:C4410701O,0,
StopPoint:C4410701O,StopPoint:C4410701N,0,
StopPoint:C4411000O,StopPoint:C4411000N,0,
StopPoint:C4411000N,StopPoint:C4411000O,0,
StopPoint:C4410718N,StopPoint:C4410718O,0,
StopPoint:C4410718O,StopPoint:C4410718N,0,
StopPoint:C44Nav1360,StopPoint:C44Nav1379,0,
StopPoint:C44Nav1379,StopPoint:C44Nav1360,0,
StopPoint:C4410677N,StopPoint:C4410677O,0,
StopPoint:C4410677O,StopPoint:C4410677N,0,
StopPoint:C4410670O,StopPoint:C4410670N,0,
StopPoint:C4410670N,StopPoint:C4410670O,0,
StopPoint:C4410999N,StopPoint:C4410999O,0,
StopPoint:C4410999O,StopPoint:C4410999N,0,
StopPoint:C4425386O,StopPoint:C4425386N,0,
StopPoint:C4425386N,StopPoint:C4425386O,0,
StopPoint:C4410672O,StopPoint:C4410672N,0,
StopPoint:C4410672N,StopPoint:C4410672O,0,
StopPoint:C4410582N,StopPoint:C4410582O,0,
StopPoint:C4410582O,StopPoint:C4410582N,0,
StopPoint:C4410579O,StopPoint:C4410579N,0,
StopPoint:C4410579N,StopPoint:C4410579O,0,
StopPoint:C44Nav2280,StopPoint:C4411162O,0,
StopPoint:C4411162O,StopPoint:C44Nav2280,0,
StopPoint:C4410656O,StopPoint:C4410656N,2,93
StopPoint:C4410656N,StopPoint:C4410656O,2,93
StopPoint:C4425388O,StopPoint:C4425388N,0,
StopPoint:C4425388N,StopPoint:C4425388O,0,
StopPoint:C4410978N,StopPoint:C4410978O,0,
StopPoint:C4410978O,StopPoint:C4410978N,0,
StopPoint:C4410586N,StopPoint:C4410586O,0,
StopPoint:C4410586O,StopPoint:C4410586N,0,
StopPoint:C44Nav2495,StopPoint:C44Nav2496,0,
StopPoint:C44Nav2496,StopPoint:C44Nav2495,0,
StopPoint:C4410702N,StopPoint:C44Nav2456,0,
StopPoint:C44Nav2456,StopPoint:C4410702N,0,
StopPoint:C44Nav2682,StopPoint:C44Nav2685,0,
StopPoint:C44Nav2685,StopPoint:C44Nav2682,0,
StopPoint:C44tp05O,StopPoint:C44tp05N,0,
StopPoint:C44tp05N,StopPoint:C44tp05O,0,
StopPoint:C4410866O,StopPoint:C4410866N,0,
StopPoint:C4410866N,StopPoint:C4410866O,0,
StopPoint:C4410679O,StopPoint:C4410679N,0,
StopPoint:C4410679N,StopPoint:C4410679O,0,
StopPoint:C44Nav2683,StopPoint:C44Nav2684,0,
StopPoint:C44Nav2684,StopPoint:C44Nav2683,0,
StopPoint:C44tp06N,StopPoint:C44tp06O,0,
StopPoint:C44tp06O,StopPoint:C44tp06N,0,
StopPoint:C4424020O,StopPoint:C4424020N,0,
StopPoint:C4424020N,StopPoint:C4424020O,0,
StopPoint:C4410581N,StopPoint:C4410581O,0,
StopPoint:C4410581O,StopPoint:C4410581N,0,
StopPoint:C4410688N,StopPoint:C4410688O,0,
StopPoint:C4410688O,StopPoint:C4410688N,0,
StopPoint:C4410869N,StopPoint:C4410869O,0,
StopPoint:C4410869O,StopPoint:C4410869N,0,
StopPoint:C4410703O,StopPoint:C4410703N,0,
StopPoint:C4410703N,StopPoint:C4410703O,0,
StopPoint:C4410698O,StopPoint:C4410698N,0,
StopPoint:C4410698N,StopPoint:C4410698O,0,
StopPoint:C44Nav2400,StopPoint:C44Nav2399,0,
StopPoint:C44Nav2399,StopPoint:C44Nav2400,0,
StopPoint:C4410719N,StopPoint:C4410719O,0,
StopPoint:C4410719O,StopPoint:C4410719N,0,
StopPoint:C4410663N,StopPoint:C4410663O,0,
StopPoint:C4410663O,StopPoint:C4410663N,0,
StopPoint:C4410720N,StopPoint:C4410720O,0,
StopPoint:C4410720O,StopPoint:C4410720N,0,
StopPoint:C4410687N,StopPoint:C4410687O,0,
StopPoint:C4410687O,StopPoint:C4410687N,0,
StopPoint:C4410660N,StopPoint:C4410660O,0,
StopPoint:C4410660O,StopPoint:C4410660N,0,
StopPoint:C4410686O,StopPoint:C4410686N,0,
StopPoint:C4410686N,StopPoint:C4410686O,0,
StopPoint:C4410681O,StopPoint:C4410681N,0,
StopPoint:C4410681N,StopPoint:C4410681O,0,
StopPoint:C4410680N,StopPoint:C4410680O,0,
StopPoint:C4410680O,StopPoint:C4410680N,0,
StopPoint:C4410675O,StopPoint:C4410675N,0,
StopPoint:C4410675N,StopPoint:C4410675O,0,
StopPoint:C4410692O,StopPoint:C4410692N,0,
StopPoint:C4410692N,StopPoint:C4410692O,0,
StopPoint:C4410588O,StopPoint:C4410588N,0,
StopPoint:C4410588N,StopPoint:C4410588O,0,
StopPoint:C4410584O,StopPoint:C4410584N,0,
StopPoint:C4410584N,StopPoint:C4410584O,0,
StopPoint:C4410648O,StopPoint:C4410648N,2,585
StopPoint:C4410648N,StopPoint:C4410648O,2,585
StopPoint:C44Nav2481,StopPoint:C44Nav2491,0,
StopPoint:C44Nav2491,StopPoint:C44Nav2481,0,
StopPoint:C44Nav1738,StopPoint:C44Nav1968,0,
StopPoint:C44Nav1968,StopPoint:C44Nav1738,0,
StopPoint:C4414505N,StopPoint:C4414505O,0,
StopPoint:C4414505O,StopPoint:C4414505N,0,
StopPoint:C4424745O,StopPoint:C4424745N,0,
StopPoint:C4424745N,StopPoint:C4424745O,0,
StopPoint:C44Nav2531,StopPoint:C44Nav2554,0,
StopPoint:C44Nav2554,StopPoint:C44Nav2531,0,
StopPoint:C44Nav2431,StopPoint:C44Nav2428,0,
StopPoint:C44Nav2428,StopPoint:C44Nav2431,0,
StopPoint:C44Nav2708,StopPoint:C44Nav2713,0,
StopPoint:C44Nav2713,StopPoint:C44Nav2708,0,
StopPoint:C4424548N,StopPoint:C4424548O,0,
StopPoint:C4424548O,StopPoint:C4424548N,0,
StopPoint:C4424164N,StopPoint:C4424164O,0,
StopPoint:C4424164O,StopPoint:C4424164N,0,
StopPoint:C4405112O,StopPoint:C4405112N,0,
StopPoint:C4405112N,StopPoint:C4405112O,0,
StopPoint:C4423025N,StopPoint:C4423025O,0,
StopPoint:C4423025O,StopPoint:C4423025N,0,
StopPoint:C4414920O,StopPoint:C44Nav2692,0,
StopPoint:C44Nav2692,StopPoint:C4414920O,0,
StopPoint:C44Nav2331,StopPoint:C44Nav2342,0,
StopPoint:C44Nav2342,StopPoint:C44Nav2331,0,
StopPoint:C4402446O,StopPoint:C4402446N,0,
StopPoint:C4402446N,StopPoint:C4402446O,0,
StopPoint:C4425210N,StopPoint:C4425210O,0,
StopPoint:C4425210O,StopPoint:C4425210N,0,
StopPoint:C44Nav2330,StopPoint:C44Nav2343,0,
StopPoint:C44Nav2343,StopPoint:C44Nav2330,0,
StopPoint:C448513N,StopPoint:C448513O,0,
StopPoint:C448513O,StopPoint:C448513N,0,
StopPoint:C4408508N,StopPoint:C4408508O,0,
StopPoint:C4408508O,StopPoint:C4408508N,0,
StopPoint:C4424754N,StopPoint:C4424754O,0,
StopPoint:C4424754O,StopPoint:C4424754N,0,
StopPoint:C4409893O,StopPoint:C4409893N,0,
StopPoint:C4409893N,StopPoint:C4409893O,0,
StopPoint:C44Nav2731,StopPoint:C44Nav2726,0,
StopPoint:C44Nav2726,StopPoint:C44Nav2731,0,
StopPoint:C4412243N,StopPoint:C4412243O,0,
StopPoint:C4412243O,StopPoint:C4412243N,0,
StopPoint:C44593O,StopPoint:C4413236O,0,
StopPoint:C4413236O,StopPoint:C44593O,0,
StopPoint:C4423246O,StopPoint:C4423246N,0,
StopPoint:C4423246N,StopPoint:C4423246O,0,
StopPoint:C4413219N,StopPoint:C4413219O,0,
StopPoint:C4413219O,StopPoint:C4413219N,0,
StopPoint:C4412231N,StopPoint:C4412231O,0,
StopPoint:C4412231O,StopPoint:C4412231N,0,
StopPoint:C4413213O,StopPoint:C4413213N,0,
StopPoint:C4413213N,StopPoint:C4413213O,0,
StopPoint:C4412232O,StopPoint:C4412232N,0,
StopPoint:C4412232N,StopPoint:C4412232O,0,
StopPoint:C4412251O,StopPoint:C4412251N,0,
StopPoint:C4412251N,StopPoint:C4412251O,0,
StopPoint:C4414370N,StopPoint:C44Nav2556,0,
StopPoint:C44Nav2556,StopPoint:C4414370N,0,
StopPoint:C44Nav2015,StopPoint:C44Nav1996,0,
StopPoint:C44Nav1996,StopPoint:C44Nav2015,0,
StopPoint:C44Nav2012,StopPoint:C44Nav1999,0,
StopPoint:C44Nav1999,StopPoint:C44Nav2012,0,
StopPoint:C44Nav1995,StopPoint:C4425510O,0,
StopPoint:C4425510O,StopPoint:C44Nav1995,0,
StopPoint:C44Nav2014,StopPoint:C44Nav1997,0,
StopPoint:C44Nav1997,StopPoint:C44Nav2014,0,
StopPoint:C4413812N,StopPoint:C4413812O,0,
StopPoint:C4413812O,StopPoint:C4413812N,0,
StopPoint:C44756O,StopPoint:C44756N,0,
StopPoint:C44756N,StopPoint:C44756O,0,
StopPoint:C4413972N,StopPoint:C4413972O,0,
StopPoint:C4413972O,StopPoint:C4413972N,0,
StopPoint:C4411259O,StopPoint:C4411259N,0,
StopPoint:C4411259N,StopPoint:C4411259O,0,
StopPoint:C4411265N,StopPoint:C4411265O,0,
StopPoint:C4411265O,StopPoint:C4411265N,0,
StopPoint:C4410379N,StopPoint:C4410379O,0,
StopPoint:C4410379O,StopPoint:C4410379N,0,
StopPoint:C44Nav2351,StopPoint:C44Nav2350,0,
StopPoint:C44Nav2350,StopPoint:C44Nav2351,0,
StopPoint:C44Nav2525,StopPoint:C44Nav2522,0,
StopPoint:C44Nav2522,StopPoint:C44Nav2525,0,
StopPoint:C4410338N,StopPoint:C4410338O,0,
StopPoint:C4410338O,StopPoint:C4410338N,0,
StopPoint:C44Nav2524,StopPoint:C44Nav2523,0,
StopPoint:C44Nav2523,StopPoint:C44Nav2524,0,
StopPoint:C4411277O,StopPoint:C4411277N,0,
StopPoint:C4411277N,StopPoint:C4411277O,0,
StopPoint:C44Nav2681,StopPoint:C44Nav2680,0,
StopPoint:C44Nav2680,StopPoint:C44Nav2681,0,
StopPoint:C4422541N,StopPoint:C4424257O,0,
StopPoint:C4424257O,StopPoint:C4422541N,0,
StopPoint:C4410422O,StopPoint:C4410422N,0,
StopPoint:C4410422N,StopPoint:C4410422O,0,
StopPoint:C4410629N,StopPoint:C4410629O,0,
StopPoint:C4410629O,StopPoint:C4410629N,0,
StopPoint:C4410378O,StopPoint:C4410378N,0,
StopPoint:C4410378N,StopPoint:C4410378O,0,
StopPoint:C44Nav2678,StopPoint:C44Nav2648,0,
StopPoint:C44Nav2648,StopPoint:C44Nav2678,0,
StopPoint:C4410382N,StopPoint:C4410382O,0,
StopPoint:C4410382O,StopPoint:C4410382N,0,
StopPoint:C4411280N,StopPoint:C4411280O,0,
StopPoint:C4411280O,StopPoint:C4411280N,0,
StopPoint:C4411250O,StopPoint:C4411250N,0,
StopPoint:C4411250N,StopPoint:C4411250O,0,
StopPoint:C4410606N,StopPoint:C4410606O,0,
StopPoint:C4410606O,StopPoint:C4410606N,0,
StopPoint:C4411274N,StopPoint:C4411274O,0,
StopPoint:C4411274O,StopPoint:C4411274N,0,
StopPoint:C4422540O,StopPoint:C4422540N,0,
StopPoint:C4422540N,StopPoint:C4422540O,0,
StopPoint:C44Nav2453,StopPoint:C4411258O,0,
StopPoint:C4411258O,StopPoint:C44Nav2453,0,
StopPoint:C44Nav2679,StopPoint:C44Nav2650,0,
StopPoint:C44Nav2650,StopPoint:C44Nav2679,0,
StopPoint:C4410340N,StopPoint:C4410340O,0,
StopPoint:C4410340O,StopPoint:C4410340N,0,
StopPoint:C4410613N,StopPoint:C4410613O,0,
StopPoint:C4410613O,StopPoint:C4410613N,0,
StopPoint:C4411263O,StopPoint:C4411263N,0,
StopPoint:C4411263N,StopPoint:C4411263O,0,
StopPoint:C4411271O,StopPoint:C4411271N,0,
StopPoint:C4411271N,StopPoint:C4411271O,0,
StopPoint:C4411257N,StopPoint:C4411257O,0,
StopPoint:C4411257O,StopPoint:C4411257N,0,
StopPoint:C449238N,StopPoint:C449238O,0,
StopPoint:C449238O,StopPoint:C449238N,0,
StopPoint:C44Nav2227,StopPoint:C44Nav2222,0,
StopPoint:C44Nav2222,StopPoint:C44Nav2227,0,
StopPoint:C4422218O,StopPoint:C4422218N,0,
StopPoint:C4422218N,StopPoint:C4422218O,0,
StopPoint:C4424861O,StopPoint:C4424861N,0,
StopPoint:C4424861N,StopPoint:C4424861O,0,
StopPoint:C4422219O,StopPoint:C4422219N,0,
StopPoint:C4422219N,StopPoint:C4422219O,0,
StopPoint:C4425503N,StopPoint:C449393O,0,
StopPoint:C449393O,StopPoint:C4425503N,0,
StopPoint:C4410782O,StopPoint:C4410782N,0,
StopPoint:C4410782N,StopPoint:C4410782O,0,
StopPoint:C4410786O,StopPoint:C4410786N,0,
StopPoint:C4410786N,StopPoint:C4410786O,0,
StopPoint:C44Nav2440,StopPoint:C44Nav2441,0,
StopPoint:C44Nav2441,StopPoint:C44Nav2440,0,
StopPoint:C4410812O,StopPoint:C4410812N,0,
StopPoint:C4410812N,StopPoint:C4410812O,0,
StopPoint:C4410787O,StopPoint:C4410787N,0,
StopPoint:C4410787N,StopPoint:C4410787O,0,
StopPoint:C4410789N,StopPoint:C4410789O,0,
StopPoint:C4410789O,StopPoint:C4410789N,0,
StopPoint:C44Nav2354,StopPoint:C44Nav2355,0,
StopPoint:C44Nav2355,StopPoint:C44Nav2354,0,
StopPoint:C4415148N,StopPoint:C4415148O,0,
StopPoint:C4415148O,StopPoint:C4415148N,0,
StopPoint:C4424846N,StopPoint:C4424846O,0,
StopPoint:C4424846O,StopPoint:C4424846N,0,
StopPoint:C4425517O,StopPoint:C4415252O,0,
StopPoint:C4415252O,StopPoint:C4425517O,0,
StopPoint:C44Nav2384,StopPoint:C44Nav2371,0,
StopPoint:C44Nav2371,StopPoint:C44Nav2384,0,
StopPoint:C4424840O,StopPoint:C4424840N,0,
StopPoint:C4424840N,StopPoint:C4424840O,0,
StopPoint:C44Nav2180,StopPoint:C44Nav1464,0,
StopPoint:C44Nav1464,StopPoint:C44Nav2180,0,
StopPoint:C4403635O,StopPoint:C4403635N,0,
StopPoint:C4403635N,StopPoint:C4403635O,0,
StopPoint:C44Nav2720,StopPoint:C44Nav2725,0,
StopPoint:C44Nav2725,StopPoint:C44Nav2720,0,
StopPoint:C4409807O,StopPoint:C4409807N,0,
StopPoint:C4409807N,StopPoint:C4409807O,0,
StopPoint:C44Nav2518,StopPoint:C44Nav2517,0,
StopPoint:C44Nav2517,StopPoint:C44Nav2518,0,
StopPoint:C4424892O,StopPoint:C4424892N,0,
StopPoint:C4424892N,StopPoint:C4424892O,0,
StopPoint:C447909N,StopPoint:C447909O,0,
StopPoint:C447909O,StopPoint:C447909N,0,
StopPoint:C447921O,StopPoint:C447921N,0,
StopPoint:C447921N,StopPoint:C447921O,0,
StopPoint:C4422159O,StopPoint:C4422159N,0,
StopPoint:C4422159N,StopPoint:C4422159O,0,
StopPoint:C4413048O,StopPoint:C4413048N,0,
StopPoint:C4413048N,StopPoint:C4413048O,0,
StopPoint:C4424933N,StopPoint:C4424933O,0,
StopPoint:C4424933O,StopPoint:C4424933N,0,
StopPoint:C4413136O,StopPoint:C4413136N,0,
StopPoint:C4413136N,StopPoint:C4413136O,0,
StopPoint:C4407872O,StopPoint:C4407872N,0,
StopPoint:C4407872N,StopPoint:C4407872O,0,
StopPoint:C4422972O,StopPoint:C4422972N,0,
StopPoint:C4422972N,StopPoint:C4422972O,0,
StopPoint:C44Nav2655,StopPoint:C44Nav2642,0,
StopPoint:C44Nav2642,StopPoint:C44Nav2655,0,
StopPoint:C449473O,StopPoint:C449473N,0,
StopPoint:C449473N,StopPoint:C449473O,0,
StopPoint:C44Nav2644,StopPoint:C44Nav2658,0,
StopPoint:C44Nav2658,StopPoint:C44Nav2644,0,
StopPoint:C443757O,StopPoint:C4403757N,0,
StopPoint:C4403757N,StopPoint:C443757O,0,
StopPoint:C44Nav2691,StopPoint:C44Nav2608,0,
StopPoint:C44Nav2608,StopPoint:C44Nav2691,0,
StopPoint:C4409433O,StopPoint:C4409433N,0,
StopPoint:C4409433N,StopPoint:C4409433O,0,
StopPoint:C4411568O,StopPoint:C4411568N,0,
StopPoint:C4411568N,StopPoint:C4411568O,0,
StopPoint:C4411561O,StopPoint:C4411561N,0,
StopPoint:C4411561N,StopPoint:C4411561O,0,
StopPoint:C4423875O,StopPoint:C4423875N,0,
StopPoint:C4423875N,StopPoint:C4423875O,0,
StopPoint:C4407371O,StopPoint:C4407371N,0,
StopPoint:C4407371N,StopPoint:C4407371O,0,
StopPoint:C4402624N,StopPoint:C4402624O,0,
StopPoint:C4402624O,StopPoint:C4402624N,0,
StopPoint:C44Nav2660,StopPoint:C44Nav2659,0,
StopPoint:C44Nav2659,StopPoint:C44Nav2660,0,
StopPoint:C44Nav1794,StopPoint:C44Nav1806,0,
StopPoint:C44Nav1806,StopPoint:C44Nav1794,0,
StopPoint:C44Nav2695,StopPoint:C44Nav2694,0,
StopPoint:C44Nav2694,StopPoint:C44Nav2695,0,
StopPoint:C443830N,StopPoint:C443830O,0,
StopPoint:C443830O,StopPoint:C443830N,0,
StopPoint:C4422804N,StopPoint:C4422804O,0,
StopPoint:C4422804O,StopPoint:C4422804N,0,
StopPoint:C44849O,StopPoint:C44849N,0,
StopPoint:C44849N,StopPoint:C44849O,0,
StopPoint:C4410217O,StopPoint:C4410217N,0,
StopPoint:C4410217N,StopPoint:C4410217O,0,
StopPoint:C4410213N,StopPoint:C4410213O,0,
StopPoint:C4410213O,StopPoint:C4410213N,0,
StopPoint:C44Nav2286,StopPoint:C44Nav2281,0,
StopPoint:C44Nav2281,StopPoint:C44Nav2286,0,
StopPoint:C4410214N,StopPoint:C4410214O,0,
StopPoint:C4410214O,StopPoint:C4410214N,0,
StopPoint:C4410225N,StopPoint:C4410225O,0,
StopPoint:C4410225O,StopPoint:C4410225N,0,
StopPoint:C4410212O,StopPoint:C4410212N,0,
StopPoint:C4410212N,StopPoint:C4410212O,0,
StopPoint:C4410209N,StopPoint:C4410209O,0,
StopPoint:C4410209O,StopPoint:C4410209N,0,
StopPoint:C4410286N,StopPoint:C4410286O,0,
StopPoint:C4410286O,StopPoint:C4410286N,0,
StopPoint:C4410230N,StopPoint:C4410230O,0,
StopPoint:C4410230O,StopPoint:C4410230N,0,
StopPoint:C4410224O,StopPoint:C4410224N,0,
StopPoint:C4410224N,StopPoint:C4410224O,0,
StopPoint:C4410215N,StopPoint:C4410215O,0,
StopPoint:C4410215O,StopPoint:C4410215N,0,
StopPoint:C4410232O,StopPoint:C4410232N,0,
StopPoint:C4410232N,StopPoint:C4410232O,0,
StopPoint:C4410227O,StopPoint:C4410227N,0,
StopPoint:C4410227N,StopPoint:C4410227O,0,
StopPoint:C4410216N,StopPoint:C4410216O,0,
StopPoint:C4410216O,StopPoint:C4410216N,0,
StopPoint:C4410290O,StopPoint:C4410290N,0,
StopPoint:C4410290N,StopPoint:C4410290O,0,
StopPoint:C44Nav2283,StopPoint:C44Nav2285,0,
StopPoint:C44Nav2285,StopPoint:C44Nav2283,0,
StopPoint:C4410210O,StopPoint:C4410210N,0,
StopPoint:C4410210N,StopPoint:C4410210O,0,
StopPoint:C4410208N,StopPoint:C4410208O,0,
StopPoint:C4410208O,StopPoint:C4410208N,0,
StopPoint:C4423599N,StopPoint:C4423599O,0,
StopPoint:C4423599O,StopPoint:C4423599N,0,
StopPoint:C4410229O,StopPoint:C4410229N,0,
StopPoint:C4410229N,StopPoint:C4410229O,0,
StopPoint:C4410233O,StopPoint:C4410233N,0,
StopPoint:C4410233N,StopPoint:C4410233O,0,
StopPoint:C44Nav2284,StopPoint:C44Nav2282,0,
StopPoint:C44Nav2282,StopPoint:C44Nav2284,0,
StopPoint:C4411108N,StopPoint:C4411108O,0,
StopPoint:C4411108O,StopPoint:C4411108N,0,
StopPoint:C4411222N,StopPoint:C4411222O,0,
StopPoint:C4411222O,StopPoint:C4411222N,0,
StopPoint:C4425493N,StopPoint:C4425493O,0,
StopPoint:C4425493O,StopPoint:C4425493N,0,
StopPoint:C4411096O,StopPoint:C4411096N,0,
StopPoint:C4411096N,StopPoint:C4411096O,0,
StopPoint:C4483O,StopPoint:C4483N,0,
StopPoint:C4483N,StopPoint:C4483O,0,
StopPoint:C44208N,StopPoint:C44208O,0,
StopPoint:C44208O,StopPoint:C44208N,0,
StopPoint:C4411225O,StopPoint:C4411225N,0,
StopPoint:C4411225N,StopPoint:C4411225O,0,
StopPoint:C4411231O,StopPoint:C4411231N,0,
StopPoint:C4411231N,StopPoint:C4411231O,0,
StopPoint:C4422194N,StopPoint:C4422194O,0,
StopPoint:C4422194O,StopPoint:C4422194N,0,
StopPoint:C4404017O,StopPoint:C4404017N,0,
StopPoint:C4404017N,StopPoint:C4404017O,0,
StopPoint:C444044O,StopPoint:C444044N,0,
StopPoint:C444044N,StopPoint:C444044O,0,
StopPoint:C444003N,StopPoint:C444003O,0,
StopPoint:C444003O,StopPoint:C444003N,0,
StopPoint:C444047N,StopPoint:C444047O,0,
StopPoint:C444047O,StopPoint:C444047N,0,
StopPoint:C44Nav2311,StopPoint:C44Nav2257,0,
StopPoint:C44Nav2257,StopPoint:C44Nav2311,0,
StopPoint:C448859N,StopPoint:C448859O,0,
StopPoint:C448859O,StopPoint:C448859N,0,
StopPoint:C44Nav1713,StopPoint:C44Nav1728,0,
StopPoint:C44Nav1728,StopPoint:C44Nav1713,0,
StopPoint:C448878O,StopPoint:C448878N,0,
StopPoint:C448878N,StopPoint:C448878O,0,
StopPoint:C448857O,StopPoint:C448857N,0,
StopPoint:C448857N,StopPoint:C448857O,0,
StopPoint:C4408864O,StopPoint:C4408864N,0,
StopPoint:C4408864N,StopPoint:C4408864O,0,
StopPoint:C4422338N,StopPoint:C4422338O,0,
StopPoint:C4422338O,StopPoint:C4422338N,0,
StopPoint:C4422238N,StopPoint:C4422238O,0,
StopPoint:C4422238O,StopPoint:C4422238N,0,
StopPoint:C4422223O,StopPoint:C4422223N,0,
StopPoint:C4422223N,StopPoint:C4422223O,0,
StopPoint:C44173O,StopPoint:C44173N,0,
StopPoint:C44173N,StopPoint:C44173O,0,
StopPoint:C4425515N,StopPoint:C445337N,0,
StopPoint:C445337N,StopPoint:C4425515N,0,
StopPoint:C444940N,StopPoint:C444940O,0,
StopPoint:C444940O,StopPoint:C444940N,0,
StopPoint:C441472O,StopPoint:C441472N,0,
StopPoint:C441472N,StopPoint:C441472O,0,
StopPoint:C44Nav2204,StopPoint:C44Nav2188,0,
StopPoint:C44Nav2188,StopPoint:C44Nav2204,0,
StopPoint:C4413170N,StopPoint:C4413170O,0,
StopPoint:C4413170O,StopPoint:C4413170N,0,
StopPoint:C4422359N,StopPoint:C4422359O,0,
StopPoint:C4422359O,StopPoint:C4422359N,0,
StopPoint:C4410096O,StopPoint:C4410096N,0,
StopPoint:C4410096N,StopPoint:C4410096O,0,
StopPoint:C44Nav2693,StopPoint:C4422211O,0,
StopPoint:C4422211O,StopPoint:C44Nav2693,0,
StopPoint:C4422188N,StopPoint:C4422188O,0,
StopPoint:C4422188O,StopPoint:C4422188N,0,
StopPoint:C44Nav2654,StopPoint:C44Nav2640,0,
StopPoint:C44Nav2640,StopPoint:C44Nav2654,0,
StopPoint:C44Nav2426,StopPoint:C44Nav2424,0,
StopPoint:C44Nav2424,StopPoint:C44Nav2426,0,
StopPoint:C4422168N,StopPoint:C4422168O,0,
StopPoint:C4422168O,StopPoint:C4422168N,0,
StopPoint:C4422186N,StopPoint:C4422186O,0,
StopPoint:C4422186O,StopPoint:C4422186N,0,
StopPoint:C44Nav2218,StopPoint:C44Nav2194,0,
StopPoint:C44Nav2194,StopPoint:C44Nav2218,0,
StopPoint:C4425244N,StopPoint:C4425244O,0,
StopPoint:C4425244O,StopPoint:C4425244N,0,
StopPoint:C4422260N,StopPoint:C4422260O,0,
StopPoint:C4422260O,StopPoint:C4422260N,0,
StopPoint:C44Nav2581,StopPoint:C44Nav2703,0,
StopPoint:C44Nav2703,StopPoint:C44Nav2581,0,
StopPoint:C4412653O,StopPoint:C4412653N,0,
StopPoint:C4412653N,StopPoint:C4412653O,0,
StopPoint:C4424817N,StopPoint:C4424817O,0,
StopPoint:C4424817O,StopPoint:C4424817N,0,
StopPoint:C44Nav1454,StopPoint:C44Nav1476,0,
StopPoint:C44Nav1476,StopPoint:C44Nav1454,0,
StopPoint:C4424818O,StopPoint:C4424818N,0,
StopPoint:C4424818N,StopPoint:C4424818O,0,
StopPoint:C4425246O,StopPoint:C4425246N,0,
StopPoint:C4425246N,StopPoint:C4425246O,0,
StopPoint:C4424866O,StopPoint:C4422273O,0,
StopPoint:C4422273O,StopPoint:C4424866O,0,
StopPoint:C44Nav2247,StopPoint:C44Nav2243,0,
StopPoint:C44Nav2243,StopPoint:C44Nav2247,0,
StopPoint:C4422167O,StopPoint:C4422167N,0,
StopPoint:C4422167N,StopPoint:C4422167O,0,
StopPoint:C44Nav2252,StopPoint:C44Nav2245,0,
StopPoint:C44Nav2245,StopPoint:C44Nav2252,0,
StopPoint:C4425247N,StopPoint:C4425247O,0,
StopPoint:C4425247O,StopPoint:C4425247N,0,
StopPoint:C4422214O,StopPoint:C4422214N,0,
StopPoint:C4422214N,StopPoint:C4422214O,0,
StopPoint:C4422251O,StopPoint:C4422251N,0,
StopPoint:C4422251N,StopPoint:C4422251O,0,
StopPoint:C4424567O,StopPoint:C4424567N,0,
StopPoint:C4424567N,StopPoint:C4424567O,0,
StopPoint:C4422256N,StopPoint:C4422256O,0,
StopPoint:C4422256O,StopPoint:C4422256N,0,
StopPoint:C4425248O,StopPoint:C4425248N,0,
StopPoint:C4425248N,StopPoint:C4425248O,0,
StopPoint:C44Nav2653,StopPoint:C44Nav2652,0,
StopPoint:C44Nav2652,StopPoint:C44Nav2653,0,
StopPoint:C4422190N,StopPoint:C4422190O,0,
StopPoint:C4422190O,StopPoint:C4422190N,0,
StopPoint:C448728N,StopPoint:C4422253N,0,
StopPoint:C4422253N,StopPoint:C448728N,0,
StopPoint:C4422259N,StopPoint:C4422259O,0,
StopPoint:C4422259O,StopPoint:C4422259N,0,
StopPoint:C44Nav2670,StopPoint:C44Nav2630,0,
StopPoint:C44Nav2630,StopPoint:C44Nav2670,0,
StopPoint:C44Nav2198,StopPoint:C44Nav2184,0,
StopPoint:C44Nav2184,StopPoint:C44Nav2198,0,
StopPoint:C44Nav2576,StopPoint:C44Nav2577,0,
StopPoint:C44Nav2577,StopPoint:C44Nav2576,0,
StopPoint:C4412470N,StopPoint:C4412470O,0,
StopPoint:C4412470O,StopPoint:C4412470N,0,
StopPoint:C4425259O,StopPoint:C4425256N,0,
StopPoint:C4425256N,StopPoint:C4425259O,0,
StopPoint:C4412490N,StopPoint:C4412490O,0,
StopPoint:C4412490O,StopPoint:C4412490N,0,
StopPoint:C44Nav1636,StopPoint:C44Nav1586,0,
StopPoint:C44Nav1586,StopPoint:C44Nav1636,0,
StopPoint:C4422257O,StopPoint:C4422257N,0,
StopPoint:C4422257N,StopPoint:C4422257O,0,
StopPoint:C4415767N,StopPoint:C4415767O,0,
StopPoint:C4415767O,StopPoint:C4415767N,0,
StopPoint:C4422189O,StopPoint:C4422189N,0,
StopPoint:C4422189N,StopPoint:C4422189O,0,
StopPoint:C4422294O,StopPoint:C4422294N,0,
StopPoint:C4422294N,StopPoint:C4422294O,0,
StopPoint:C44Nav1577,StopPoint:C44Nav1652,0,
StopPoint:C44Nav1652,StopPoint:C44Nav1577,0,
StopPoint:C4422929O,StopPoint:C4422929N,0,
StopPoint:C4422929N,StopPoint:C4422929O,0,
StopPoint:C44Nav2698,StopPoint:C44Nav2697,0,
StopPoint:C44Nav2697,StopPoint:C44Nav2698,0,
StopPoint:C4412747N,StopPoint:C4412747O,0,
StopPoint:C4412747O,StopPoint:C4412747N,0,
StopPoint:C44Nav2294,StopPoint:C44Nav2295,0,
StopPoint:C44Nav2295,StopPoint:C44Nav2294,0,
StopPoint:C44Nav2609,StopPoint:C44Nav2661,0,
StopPoint:C44Nav2661,StopPoint:C44Nav2609,0,
StopPoint:C4415034N,StopPoint:C4415034O,0,
StopPoint:C4415034O,StopPoint:C4415034N,0,
StopPoint:C44Nav2226,StopPoint:C44Nav2208,0,
StopPoint:C44Nav2208,StopPoint:C44Nav2226,0,
StopPoint:C4415294O,StopPoint:C4415294N,0,
StopPoint:C4415294N,StopPoint:C4415294O,0,
StopPoint:C4424365N,StopPoint:C4424365O,0,
StopPoint:C4424365O,StopPoint:C4424365N,0,
StopPoint:C44Nav2714,StopPoint:C44Nav2719,0,
StopPoint:C44Nav2719,StopPoint:C44Nav2714,0,
StopPoint:C4402640O,StopPoint:C4402640N,0,
StopPoint:C4402640N,StopPoint:C4402640O,0,
StopPoint:C4423031N,StopPoint:C4423031O,0,
StopPoint:C4423031O,StopPoint:C4423031N,0,
StopPoint:C4420738O,StopPoint:C4420738N,0,
StopPoint:C4420738N,StopPoint:C4420738O,0,
StopPoint:C4422281O,StopPoint:C4422281N,0,
StopPoint:C4422281N,StopPoint:C4422281O,0,
StopPoint:C4422207N,StopPoint:C4422207O,0,
StopPoint:C4422207O,StopPoint:C4422207N,0,
StopPoint:C4424838N,StopPoint:C4424838O,0,
StopPoint:C4424838O,StopPoint:C4424838N,0,
StopPoint:C4422395O,StopPoint:C4422395N,0,
StopPoint:C4422395N,StopPoint:C4422395O,0,
StopPoint:C4420818O,StopPoint:C4420818N,0,
StopPoint:C4420818N,StopPoint:C4420818O,0,
StopPoint:C4422184N,StopPoint:C4422184O,0,
StopPoint:C4422184O,StopPoint:C4422184N,0,
StopPoint:C44Nav2211,StopPoint:C44Nav2195,0,
StopPoint:C44Nav2195,StopPoint:C44Nav2211,0,
StopPoint:C445585N,StopPoint:C445585O,0,
StopPoint:C445585O,StopPoint:C445585N,0,
StopPoint:C44Nav2255,StopPoint:C4425034O,0,
StopPoint:C4425034O,StopPoint:C44Nav2255,0,
StopPoint:C4405572O,StopPoint:C4405572N,0,
StopPoint:C4405572N,StopPoint:C4405572O,0,
StopPoint:C4423784O,StopPoint:C4423784N,0,
StopPoint:C4423784N,StopPoint:C4423784O,0,
StopPoint:C4420826O,StopPoint:C4420826N,0,
StopPoint:C4420826N,StopPoint:C4420826O,0,
StopPoint:C4423394O,StopPoint:C4423394N,0,
StopPoint:C4423394N,StopPoint:C4423394O,0,
StopPoint:C4425033O,StopPoint:C4425033N,0,
StopPoint:C4425033N,StopPoint:C4425033O,0,
StopPoint:C445584O,StopPoint:C445584N,0,
StopPoint:C445584N,StopPoint:C445584O,0,
StopPoint:C4424835O,StopPoint:C4424835N,0,
StopPoint:C4424835N,StopPoint:C4424835O,0,
StopPoint:C4414751N,StopPoint:C445577N,0,
StopPoint:C445577N,StopPoint:C4414751N,0,
StopPoint:C4423734O,StopPoint:C4423734N,0,
StopPoint:C4423734N,StopPoint:C4423734O,0,
StopPoint:C4401564N,StopPoint:C4401564O,0,
StopPoint:C4401564O,StopPoint:C4401564N,0,
StopPoint:C44Nav2667,StopPoint:C44Nav2610,0,
StopPoint:C44Nav2610,StopPoint:C44Nav2667,0,
StopPoint:C44Nav2310,StopPoint:C447457N,0,
StopPoint:C447457N,StopPoint:C44Nav2310,0,
StopPoint:C44Nav2730,StopPoint:C44Nav2727,0,
StopPoint:C44Nav2727,StopPoint:C44Nav2730,0,
StopPoint:C4412767O,StopPoint:C4412767N,0,
StopPoint:C4412767N,StopPoint:C4412767O,0,
StopPoint:C44Nav2623,StopPoint:C44Nav2669,0,
StopPoint:C44Nav2669,StopPoint:C44Nav2623,0,
StopPoint:C4401535N,StopPoint:C4401535O,0,
StopPoint:C4401535O,StopPoint:C4401535N,0,
StopPoint:C4402273O,StopPoint:C4402273N,0,
StopPoint:C4402273N,StopPoint:C4402273O,0,
StopPoint:C4410256O,StopPoint:C4410256N,0,
StopPoint:C4410256N,StopPoint:C4410256O,0,
StopPoint:C4410249O,StopPoint:C4410249N,0,
StopPoint:C4410249N,StopPoint:C4410249O,0,
StopPoint:C4410258O,StopPoint:C4410258N,0,
StopPoint:C4410258N,StopPoint:C4410258O,0,
StopPoint:C4410257N,StopPoint:C4410257O,0,
StopPoint:C4410257O,StopPoint:C4410257N,0,
StopPoint:C4410250N,StopPoint:C4410250O,0,
StopPoint:C4410250O,StopPoint:C4410250N,0,
StopPoint:C4410269N,StopPoint:C4410269O,0,
StopPoint:C4410269O,StopPoint:C4410269N,0,
StopPoint:C4410251N,StopPoint:C4410251O,0,
StopPoint:C4410251O,StopPoint:C4410251N,0,
StopPoint:C4410270N,StopPoint:C4410270O,0,
StopPoint:C4410270O,StopPoint:C4410270N,0,
StopPoint:C4410268O,StopPoint:C4410268N,0,
StopPoint:C4410268N,StopPoint:C4410268O,0,
StopPoint:C4410254O,StopPoint:C4410254N,0,
StopPoint:C4410254N,StopPoint:C4410254O,0,
StopPoint:C4406195O,StopPoint:C4406195N,0,
StopPoint:C4406195N,StopPoint:C4406195O,0,
StopPoint:C44Nav2261,StopPoint:C44Nav2275,0,
StopPoint:C44Nav2275,StopPoint:C44Nav2261,0,
StopPoint:C449007N,StopPoint:C449007O,0,
StopPoint:C449007O,StopPoint:C449007N,0,
StopPoint:C4422134O,StopPoint:C4422134N,0,
StopPoint:C4422134N,StopPoint:C4422134O,0,
StopPoint:C448975N,StopPoint:C448975O,0,
StopPoint:C448975O,StopPoint:C448975N,0,
StopPoint:C448989O,StopPoint:C448989N,0,
StopPoint:C448989N,StopPoint:C448989O,0,
StopPoint:C4408964N,StopPoint:C4408964O,0,
StopPoint:C4408964O,StopPoint:C4408964N,0,
StopPoint:C4414149N,StopPoint:C4414149O,0,
StopPoint:C4414149O,StopPoint:C4414149N,0,
StopPoint:C4425211N,StopPoint:C4425211O,0,
StopPoint:C4425211O,StopPoint:C4425211N,0,
StopPoint:C4414420O,StopPoint:C4414420N,0,
StopPoint:C4414420N,StopPoint:C4414420O,0,
StopPoint:C4414150O,StopPoint:C4414150N,0,
StopPoint:C4414150N,StopPoint:C4414150O,0,
StopPoint:C4414416N,StopPoint:C4414416O,0,
StopPoint:C4414416O,StopPoint:C4414416N,0,
StopPoint:C4414161O,StopPoint:C4414161N,0,
StopPoint:C4414161N,StopPoint:C4414161O,0,
StopPoint:C4414413O,StopPoint:C4414413N,0,
StopPoint:C4414413N,StopPoint:C4414413O,0,
StopPoint:C44Nav2372,StopPoint:C44Nav2382,0,
StopPoint:C44Nav2382,StopPoint:C44Nav2372,0,
StopPoint:C44246N,StopPoint:C44246O,0,
StopPoint:C44246O,StopPoint:C44246N,0,
StopPoint:C4423655O,StopPoint:C4423655N,0,
StopPoint:C4423655N,StopPoint:C4423655O,0,
StopPoint:C44120N,StopPoint:C44120O,0,
StopPoint:C44120O,StopPoint:C44120N,0,
StopPoint:C44Nav2334,StopPoint:C44Nav2335,0,
StopPoint:C44Nav2335,StopPoint:C44Nav2334,0,
StopPoint:C4400468O,StopPoint:C4400468N,0,
StopPoint:C4400468N,StopPoint:C4400468O,0,
StopPoint:C4424773O,StopPoint:C4424773N,0,
StopPoint:C4424773N,StopPoint:C4424773O,0,
StopPoint:C4424775O,StopPoint:C4424775N,0,
StopPoint:C4424775N,StopPoint:C4424775O,0,
StopPoint:C44Nav2272,StopPoint:C44Nav2269,0,
StopPoint:C44Nav2269,StopPoint:C44Nav2272,0,
StopPoint:C44268O,StopPoint:C44268N,0,
StopPoint:C44268N,StopPoint:C44268O,0,
StopPoint:C442283N,StopPoint:C4424774O,0,
StopPoint:C4424774O,StopPoint:C442283N,0,
StopPoint:C44Nav1347,StopPoint:C44Nav1346,0,
StopPoint:C44Nav1346,StopPoint:C44Nav1347,0,
StopPoint:C44272N,StopPoint:C4425507N,0,
StopPoint:C4425507N,StopPoint:C44272N,0,
StopPoint:C44371N,StopPoint:C44371O,0,
StopPoint:C44371O,StopPoint:C44371N,0,
StopPoint:C4424865O,StopPoint:C4410600O,0,
StopPoint:C4410600O,StopPoint:C4424865O,0,
StopPoint:C4422151O,StopPoint:C4422151N,0,
StopPoint:C4422151N,StopPoint:C4422151O,0,
StopPoint:C4407022N,StopPoint:C4407022O,0,
StopPoint:C4407022O,StopPoint:C4407022N,0,
StopPoint:C4423650N,StopPoint:C4423650O,0,
StopPoint:C4423650O,StopPoint:C4423650N,0,
StopPoint:C4415784O,StopPoint:C446990N,0,
StopPoint:C446990N,StopPoint:C4415784O,0,
StopPoint:C4406941O,StopPoint:C4406941N,0,
StopPoint:C4406941N,StopPoint:C4406941O,0,
StopPoint:C446918N,StopPoint:C446918O,0,
StopPoint:C446918O,StopPoint:C446918N,0,
StopPoint:C4422150N,StopPoint:C4422150O,0,
StopPoint:C4422150O,StopPoint:C4422150N,0,
StopPoint:C4424398O,StopPoint:C4424398N,0,
StopPoint:C4424398N,StopPoint:C4424398O,0,
StopPoint:C446986O,StopPoint:C446986N,0,
StopPoint:C446986N,StopPoint:C446986O,0,
StopPoint:C446996O,StopPoint:C446996N,0,
StopPoint:C446996N,StopPoint:C446996O,0,
StopPoint:C446916N,StopPoint:C446916O,0,
StopPoint:C446916O,StopPoint:C446916N,0,
StopPoint:C4412834O,StopPoint:C4422149O,0,
StopPoint:C4422149O,StopPoint:C4412834O,0,
StopPoint:C4407019N,StopPoint:C4407019O,0,
StopPoint:C4407019O,StopPoint:C4407019N,0,
StopPoint:C4405802O,StopPoint:C4405802N,0,
StopPoint:C4405802N,StopPoint:C4405802O,0,
StopPoint:C4405833O,StopPoint:C4405833N,0,
StopPoint:C4405833N,StopPoint:C4405833O,0,
StopPoint:C4424833O,StopPoint:C4424833N,0,
StopPoint:C4424833N,StopPoint:C4424833O,0,
StopPoint:C4424914N,StopPoint:C4424914O,0,
StopPoint:C4424914O,StopPoint:C4424914N,0,
StopPoint:C446024O,StopPoint:C446024N,0,
StopPoint:C446024N,StopPoint:C446024O,0,
StopPoint:C445738O,StopPoint:C4425505N,0,
StopPoint:C4425505N,StopPoint:C445738O,0,
StopPoint:C445791O,StopPoint:C445791N,0,
StopPoint:C445791N,StopPoint:C445791O,0,
StopPoint:C44Nav2262,StopPoint:C44Nav2274,0,
StopPoint:C44Nav2274,StopPoint:C44Nav2262,0,
StopPoint:C4405805N,StopPoint:C4405805O,0,
StopPoint:C4405805O,StopPoint:C4405805N,0,
StopPoint:C4425496O,StopPoint:C445755N,0,
StopPoint:C445755N,StopPoint:C4425496O,0,
StopPoint:C4405796O,StopPoint:C4405796N,0,
StopPoint:C4405796N,StopPoint:C4405796O,0,
StopPoint:C4424118N,StopPoint:C4424118O,0,
StopPoint:C4424118O,StopPoint:C4424118N,0,
StopPoint:C445754N,StopPoint:C445754O,0,
StopPoint:C445754O,StopPoint:C445754N,0,
StopPoint:C4410706N,StopPoint:C4410706O,0,
StopPoint:C4410706O,StopPoint:C4410706N,0,
StopPoint:C4410981N,StopPoint:C4410981O,0,
StopPoint:C4410981O,StopPoint:C4410981N,0,
StopPoint:C4411004O,StopPoint:C4411004N,0,
StopPoint:C4411004N,StopPoint:C4411004O,0,
StopPoint:C44temp02,StopPoint:C44temp03,0,
StopPoint:C44temp03,StopPoint:C44temp02,0,
StopPoint:C4406610O,StopPoint:C4406610N,0,
StopPoint:C4406610N,StopPoint:C4406610O,0,
StopPoint:C44Nav2273,StopPoint:C44Nav2263,0,
StopPoint:C44Nav2263,StopPoint:C44Nav2273,0,
StopPoint:C441576O,StopPoint:C441576N,0,
StopPoint:C441576N,StopPoint:C441576O,0,
StopPoint:C44Nav2666,StopPoint:C44Nav2611,0,
StopPoint:C44Nav2611,StopPoint:C44Nav2666,0,
StopPoint:C4401675O,StopPoint:C4401675N,0,
StopPoint:C4401675N,StopPoint:C4401675O,0,
StopPoint:C4410715N,StopPoint:C4410715O,0,
StopPoint:C4410715O,StopPoint:C4410715N,0,
StopPoint:C4410684N,StopPoint:C4410684O,0,
StopPoint:C4410684O,StopPoint:C4410684N,0,
StopPoint:C4410713N,StopPoint:C4410713O,0,
StopPoint:C4410713O,StopPoint:C4410713N,0,
StopPoint:C4410392O,StopPoint:C4410392N,0,
StopPoint:C4410392N,StopPoint:C4410392O,0,
StopPoint:C4410388O,StopPoint:C4410388N,0,
StopPoint:C4410388N,StopPoint:C4410388O,0,
StopPoint:C4410716N,StopPoint:C4410716O,0,
StopPoint:C4410716O,StopPoint:C4410716N,0,
StopPoint:C4410717N,StopPoint:C4410717O,0,
StopPoint:C4410717O,StopPoint:C4410717N,0,
StopPoint:C4410324O,StopPoint:C4410324N,0,
StopPoint:C4410324N,StopPoint:C4410324O,0,
StopPoint:C4410393N,StopPoint:C4410393O,0,
StopPoint:C4410393O,StopPoint:C4410393N,0,
StopPoint:C4410391O,StopPoint:C4410391N,0,
StopPoint:C4410391N,StopPoint:C4410391O,0,
StopPoint:C4410714N,StopPoint:C4410714O,0,
StopPoint:C4410714O,StopPoint:C4410714N,0,
StopPoint:C4410683N,StopPoint:C4410683O,0,
StopPoint:C4410683O,StopPoint:C4410683N,0,
StopPoint:C4410682O,StopPoint:C4410682N,0,
StopPoint:C4410682N,StopPoint:C4410682O,0,
StopPoint:C4422144N,StopPoint:C4422144O,0,
StopPoint:C4422144O,StopPoint:C4422144N,0,
StopPoint:C4406187O,StopPoint:C4406187N,0,
StopPoint:C4406187N,StopPoint:C4406187O,0,
StopPoint:C4400650O,StopPoint:C4400650N,0,
StopPoint:C4400650N,StopPoint:C4400650O,0,
StopPoint:C4402694N,StopPoint:C4402694O,0,
StopPoint:C4402694O,StopPoint:C4402694N,0,
StopPoint:C4402996O,StopPoint:C4402996N,0,
StopPoint:C4402996N,StopPoint:C4402996O,0,
StopPoint:C4423167N,StopPoint:C4423167O,0,
StopPoint:C4423167O,StopPoint:C4423167N,0,
StopPoint:C44Nav1993,StopPoint:C4425511O,0,
StopPoint:C4425511O,StopPoint:C44Nav1993,0,
StopPoint:C4411348N,StopPoint:C4425508O,0,
StopPoint:C4425508O,StopPoint:C4411348N,0,
StopPoint:C4425509O,StopPoint:C44751N,0,
StopPoint:C44751N,StopPoint:C4425509O,0,
StopPoint:C4410079O,StopPoint:C4410079N,0,
StopPoint:C4410079N,StopPoint:C4410079O,0,
StopPoint:C448557O,StopPoint:C448557N,0,
StopPoint:C448557N,StopPoint:C448557O,0,
StopPoint:C4409923O,StopPoint:C4409923N,0,
StopPoint:C4409923N,StopPoint:C4409923O,0,
StopPoint:C4424755N,StopPoint:C4424755O,0,
StopPoint:C4424755O,StopPoint:C4424755N,0,
StopPoint:C4422118N,StopPoint:C4422118O,0,
StopPoint:C4422118O,StopPoint:C4422118N,0,
StopPoint:C4420956O,StopPoint:C4420956N,0,
StopPoint:C4420956N,StopPoint:C4420956O,0,
StopPoint:C44Nav57,StopPoint:C44Nav175,0,
StopPoint:C44Nav175,StopPoint:C44Nav57,0,
StopPoint:C44Nav2423,StopPoint:C44Nav2438,0,
StopPoint:C44Nav2438,StopPoint:C44Nav2423,0,
StopPoint:C4422155N,StopPoint:C4422155O,0,
StopPoint:C4422155O,StopPoint:C4422155N,0,
StopPoint:C44Nav2386,StopPoint:C44Nav2385,0,
StopPoint:C44Nav2385,StopPoint:C44Nav2386,0,
StopPoint:C4422152N,StopPoint:C4422198O,0,
StopPoint:C4422198O,StopPoint:C4422152N,0,
StopPoint:C4422111O,StopPoint:C4422111N,0,
StopPoint:C4422111N,StopPoint:C4422111O,0,
StopPoint:C4422112N,StopPoint:C4425516N,0,
StopPoint:C4425516N,StopPoint:C4422112N,0,
StopPoint:C4422153O,StopPoint:C4422153N,0,
StopPoint:C4422153N,StopPoint:C4422153O,0,
StopPoint:C44Nav2425,StopPoint:C44Nav2427,0,
StopPoint:C44Nav2427,StopPoint:C44Nav2425,0,
StopPoint:C4420960O,StopPoint:C4420960N,0,
StopPoint:C4420960N,StopPoint:C4420960O,0,
StopPoint:C44Nav51,StopPoint:C44Nav181,0,
StopPoint:C44Nav181,StopPoint:C44Nav51,0,
StopPoint:C44Nav2439,StopPoint:C44Nav2558,0,
StopPoint:C44Nav2558,StopPoint:C44Nav2439,0,
StopPoint:C4410091N,StopPoint:C4410091O,0,
StopPoint:C4410091O,StopPoint:C4410091N,0,
StopPoint:C44Nav176,StopPoint:C44Nav54,0,
StopPoint:C44Nav54,StopPoint:C44Nav176,0,
StopPoint:C4422154O,StopPoint:C4422154N,0,
StopPoint:C4422154N,StopPoint:C4422154O,0,
StopPoint:C4422110O,StopPoint:C4422110N,0,
StopPoint:C4422110N,StopPoint:C4422110O,0,
StopPoint:C44tp10O,StopPoint:C44tp10N,0,
StopPoint:C44tp10N,StopPoint:C44tp10O,0,
StopPoint:C44tp08O,StopPoint:C44tp08N,0,
StopPoint:C44tp08N,StopPoint:C44tp08O,0,
StopPoint:C44tp09O,StopPoint:C44tp09N,0,
StopPoint:C44tp09N,StopPoint:C44tp09O,0,
StopPoint:C44Nav2377,StopPoint:C44Nav2383,0,
StopPoint:C44Nav2383,StopPoint:C44Nav2377,0,
StopPoint:C4406337O,StopPoint:C4406337N,0,
StopPoint:C4406337N,StopPoint:C4406337O,0,
StopPoint:C44Nav2711,StopPoint:C44Nav2710,0,
StopPoint:C44Nav2710,StopPoint:C44Nav2711,0,
StopPoint:C44Nav2704,StopPoint:C44Nav2707,0,
StopPoint:C44Nav2707,StopPoint:C44Nav2704,0,
StopPoint:C4424821N,StopPoint:C4424821O,0,
StopPoint:C4424821O,StopPoint:C4424821N,0,
StopPoint:C44Nav2278,StopPoint:C44Nav2279,0,
StopPoint:C44Nav2279,StopPoint:C44Nav2278,0,
StopPoint:C4400598O,StopPoint:C4400598N,0,
StopPoint:C4400598N,StopPoint:C4400598O,0,
StopPoint:C44591N,StopPoint:C44591O,0,
StopPoint:C44591O,StopPoint:C44591N,0,
StopPoint:C44458N,StopPoint:C44458O,0,
StopPoint:C44458O,StopPoint:C44458N,0,
StopPoint:C44Nav2021,StopPoint:C44Nav1990,0,
StopPoint:C44Nav1990,StopPoint:C44Nav2021,0,
StopPoint:C4425487O,StopPoint:C44453N,0,
StopPoint:C44453N,StopPoint:C4425487O,0,
StopPoint:C44Nav2706,StopPoint:C44Nav2705,0,
StopPoint:C44Nav2705,StopPoint:C44Nav2706,0,
StopPoint:C44Nav2253,StopPoint:C44Nav2256,2,1
StopPoint:C44Nav2256,StopPoint:C44Nav2253,2,1
StopPoint:C4425037O,StopPoint:C4425037N,0,
StopPoint:C4425037N,StopPoint:C4425037O,0,
StopPoint:C4406215O,StopPoint:C4406215N,0,
StopPoint:C4406215N,StopPoint:C4406215O,0,
StopPoint:C44Nav2562,StopPoint:C44Nav2314,2,1
StopPoint:C44Nav2562,StopPoint:C44Nav2315,0,
StopPoint:C44Nav2314,StopPoint:C44Nav2562,2,1
StopPoint:C44Nav2314,StopPoint:C44Nav2315,2,1
StopPoint:C44Nav2315,StopPoint:C44Nav2562,0,
StopPoint:C44Nav2315,StopPoint:C44Nav2314,2,1
StopPoint:C44Nav2461,StopPoint:C44Nav2561,0,
StopPoint:C44Nav2561,StopPoint:C44Nav2461,0,
StopPoint:C4425489N,StopPoint:C4425502O,0,
StopPoint:C4425502O,StopPoint:C4425489N,0,
StopPoint:C44Nav2265,StopPoint:C44Nav2276,0,
StopPoint:C44Nav2276,StopPoint:C44Nav2265,0,
StopPoint:C4422316N,StopPoint:C4422316O,0,
StopPoint:C4422316O,StopPoint:C4422316N,0,
StopPoint:C44593N,StopPoint:C44tp12O,0,
StopPoint:C44tp12O,StopPoint:C44593N,0,
StopPoint:C4406217O,StopPoint:C4406217N,0,
StopPoint:C4406217N,StopPoint:C4406217O,0,
StopPoint:C4407858O,StopPoint:C4407858N,0,
StopPoint:C4407858N,StopPoint:C4407858O,0,
StopPoint:C4424863O,StopPoint:C4424863N,0,
StopPoint:C4424863N,StopPoint:C4424863O,0,
StopPoint:C4408059N,StopPoint:C4408059O,0,
StopPoint:C4408059O,StopPoint:C4408059N,0,
StopPoint:C447898N,StopPoint:C447898O,0,
StopPoint:C447898O,StopPoint:C447898N,0,
StopPoint:C4407894N,StopPoint:C4407894O,0,
StopPoint:C4407894O,StopPoint:C4407894N,0,
StopPoint:C44Nav2519,StopPoint:C44Nav2516,0,
StopPoint:C44Nav2516,StopPoint:C44Nav2519,0,
StopPoint:C4411890O,StopPoint:C4411890N,0,
StopPoint:C4411890N,StopPoint:C4411890O,0,
StopPoint:C4411872N,StopPoint:C4411872O,0,
StopPoint:C4411872O,StopPoint:C4411872N,0,
StopPoint:C4422906O,StopPoint:C4422906N,0,
StopPoint:C4422906N,StopPoint:C4422906O,0,
StopPoint:C4411980N,StopPoint:C4411980O,0,
StopPoint:C4411980O,StopPoint:C4411980N,0,
StopPoint:C4411924O,StopPoint:C4411924N,0,
StopPoint:C4411924N,StopPoint:C4411924O,0,
StopPoint:C4411946O,StopPoint:C4411946N,0,
StopPoint:C4411946N,StopPoint:C4411946O,0,
StopPoint:C4411902O,StopPoint:C4411902N,0,
StopPoint:C4411902N,StopPoint:C4411902O,0,
StopPoint:C4411885N,StopPoint:C4411885O,0,
StopPoint:C4411885O,StopPoint:C4411885N,0,
StopPoint:C4424789O,StopPoint:C4424789N,0,
StopPoint:C4424789N,StopPoint:C4424789O,0,
StopPoint:C4411873N,StopPoint:C4411873O,0,
StopPoint:C4411873O,StopPoint:C4411873N,0,
StopPoint:C4422874O,StopPoint:C4422874N,0,
StopPoint:C4422874N,StopPoint:C4422874O,0,
StopPoint:C4424797N,StopPoint:C4424797O,0,
StopPoint:C4424797O,StopPoint:C4424797N,0,
StopPoint:C4411888O,StopPoint:C4411888N,0,
StopPoint:C4411888N,StopPoint:C4411888O,0,
StopPoint:C4422875O,StopPoint:C4422875N,0,
StopPoint:C4422875N,StopPoint:C4422875O,0,
StopPoint:C449193O,StopPoint:C449193N,0,
StopPoint:C449193N,StopPoint:C449193O,0,
StopPoint:C449194O,StopPoint:C449194N,0,
StopPoint:C449194N,StopPoint:C449194O,0,
StopPoint:C4424770O,StopPoint:C4424770N,0,
StopPoint:C4424770N,StopPoint:C4424770O,0,
StopPoint:C44Nav711,StopPoint:C44Nav709,0,
StopPoint:C44Nav709,StopPoint:C44Nav711,0,
StopPoint:C44421O,StopPoint:C44421N,0,
StopPoint:C44421N,StopPoint:C44421O,0,
StopPoint:C44Nav2532,StopPoint:C44Nav2553,0,
StopPoint:C44Nav2553,StopPoint:C44Nav2532,0,
StopPoint:C4424787O,StopPoint:C4424787N,0,
StopPoint:C4424787N,StopPoint:C4424787O,0,
StopPoint:C44Nav2482,StopPoint:C44Nav2483,0,
StopPoint:C44Nav2483,StopPoint:C44Nav2482,0,
StopPoint:C4412041O,StopPoint:C4412041N,0,
StopPoint:C4412041N,StopPoint:C4412041O,0,
StopPoint:C44Nav2217,StopPoint:C44Nav2213,0,
StopPoint:C44Nav2213,StopPoint:C44Nav2217,0,
StopPoint:C44Nav2333,StopPoint:C44Nav2332,0,
StopPoint:C44Nav2332,StopPoint:C44Nav2333,0,
StopPoint:C44Nav2560,StopPoint:C44Nav2559,0,
StopPoint:C44Nav2559,StopPoint:C44Nav2560,0,
StopPoint:C4425508N,StopPoint:C444681O,0,
StopPoint:C444681O,StopPoint:C4425508N,0,
StopPoint:C4406543N,StopPoint:C4406543O,0,
StopPoint:C4406543O,StopPoint:C4406543N,0,
StopPoint:C4409089O,StopPoint:C4409089N,0,
StopPoint:C4409089N,StopPoint:C4409089O,0,
StopPoint:C4409336N,StopPoint:C4409336O,0,
StopPoint:C4409336O,StopPoint:C4409336N,0,
StopPoint:C4409070O,StopPoint:C4409070N,0,
StopPoint:C4409070N,StopPoint:C4409070O,0,
StopPoint:C44Nav2268,StopPoint:C44Nav2701,0,
StopPoint:C44Nav2701,StopPoint:C44Nav2268,0,
StopPoint:C4409080N,StopPoint:C4409080O,0,
StopPoint:C4409080O,StopPoint:C4409080N,0,
StopPoint:C44Nav1934,StopPoint:C44Nav1925,0,
StopPoint:C44Nav1925,StopPoint:C44Nav1934,0,
StopPoint:C44Nav2646,StopPoint:C44Nav2657,0,
StopPoint:C44Nav2657,StopPoint:C44Nav2646,0,
StopPoint:C44Nav2722,StopPoint:C44Nav2723,0,
StopPoint:C44Nav2723,StopPoint:C44Nav2722,0,
StopPoint:C4406603N,StopPoint:C4406603O,0,
StopPoint:C4406603O,StopPoint:C4406603N,0,
StopPoint:C44Nav2250,StopPoint:C44Nav2251,0,
StopPoint:C44Nav2251,StopPoint:C44Nav2250,0,
StopPoint:C4408419N,StopPoint:C4408419O,0,
StopPoint:C4408419O,StopPoint:C4408419N,0,
StopPoint:C448891N,StopPoint:C448891O,0,
StopPoint:C448891O,StopPoint:C448891N,0,
StopPoint:C4406666O,StopPoint:C4406666N,0,
StopPoint:C4406666N,StopPoint:C4406666O,0,
StopPoint:C447485O,StopPoint:C447485N,0,
StopPoint:C447485N,StopPoint:C447485O,0,
StopPoint:C4410830O,StopPoint:C4410830N,0,
StopPoint:C4410830N,StopPoint:C4410830O,0,
StopPoint:C4410550O,StopPoint:C4410550N,0,
StopPoint:C4410550N,StopPoint:C4410550O,0,
StopPoint:C4410553N,StopPoint:C4410553O,0,
StopPoint:C4410553O,StopPoint:C4410553N,0,
StopPoint:C4410815N,StopPoint:C4410815O,0,
StopPoint:C4410815O,StopPoint:C4410815N,0,
StopPoint:C44Nav1348,StopPoint:C44Nav1351,0,
StopPoint:C44Nav1351,StopPoint:C44Nav1348,0,
StopPoint:C4410849O,StopPoint:C4410849N,0,
StopPoint:C4410849N,StopPoint:C4410849O,0,
StopPoint:C4422494N,StopPoint:C4422494O,0,
StopPoint:C4422494O,StopPoint:C4422494N,0,
StopPoint:C4410824N,StopPoint:C4410824O,0,
StopPoint:C4410824O,StopPoint:C4410824N,0,
StopPoint:C4410816O,StopPoint:C4410816N,0,
StopPoint:C4410816N,StopPoint:C4410816O,0,
StopPoint:C4412796O,StopPoint:C4412796N,0,
StopPoint:C4412796N,StopPoint:C4412796O,0,
StopPoint:C4400971N,StopPoint:C4400971O,0,
StopPoint:C4400971O,StopPoint:C4400971N,0,
StopPoint:C44Nav1690,StopPoint:C44Nav1608,0,
StopPoint:C44Nav1608,StopPoint:C44Nav1690,0,
StopPoint:C4412784N,StopPoint:C4412784O,0,
StopPoint:C4412784O,StopPoint:C4412784N,0,
StopPoint:C4424819O,StopPoint:C4424819N,0,
StopPoint:C4424819N,StopPoint:C4424819O,0,
StopPoint:C448728O,StopPoint:C4424869N,0,
StopPoint:C4424869N,StopPoint:C448728O,0,
StopPoint:C4412793O,StopPoint:C4412793N,0,
StopPoint:C4412793N,StopPoint:C4412793O,0,
StopPoint:C4412807N,StopPoint:C4412807O,0,
StopPoint:C4412807O,StopPoint:C4412807N,0,
StopPoint:C4413011O,StopPoint:C4413011N,0,
StopPoint:C4413011N,StopPoint:C4413011O,0,
StopPoint:C4412787N,StopPoint:C4412787O,0,
StopPoint:C4412787O,StopPoint:C4412787N,0,
StopPoint:C4412819N,StopPoint:C4412819O,0,
StopPoint:C4412819O,StopPoint:C4412819N,0,
StopPoint:C44Nav2201,StopPoint:C44Nav2191,0,
StopPoint:C44Nav2191,StopPoint:C44Nav2201,0,
StopPoint:C44Nav2200,StopPoint:C44Nav2192,0,
StopPoint:C44Nav2192,StopPoint:C44Nav2200,0,
StopPoint:C44Nav2437,StopPoint:C44Nav2436,0,
StopPoint:C44Nav2436,StopPoint:C44Nav2437,0,
StopPoint:C44Nav2190,StopPoint:C44Nav2202,0,
StopPoint:C44Nav2202,StopPoint:C44Nav2190,0,
StopPoint:C4423608N,StopPoint:C4423608O,0,
StopPoint:C4423608O,StopPoint:C4423608N,0,
StopPoint:C441331N,StopPoint:C441331O,0,
StopPoint:C441331O,StopPoint:C441331N,0,
StopPoint:C4401244N,StopPoint:C4401244O,0,
StopPoint:C4401244O,StopPoint:C4401244N,0,
StopPoint:C44Nav2466,StopPoint:C44Nav2490,0,
StopPoint:C44Nav2490,StopPoint:C44Nav2466,0,
StopPoint:C445884O,StopPoint:C445884N,0,
StopPoint:C445884N,StopPoint:C445884O,0,
StopPoint:C4423390N,StopPoint:C4423390O,0,
StopPoint:C4423390O,StopPoint:C4423390N,0,
StopPoint:C4405884N,StopPoint:C4405884O,0,
StopPoint:C4405884O,StopPoint:C4405884N,0,
StopPoint:C4424918O,StopPoint:C4424918N,0,
StopPoint:C4424918N,StopPoint:C4424918O,0,
StopPoint:C4406108O,StopPoint:C4406108N,0,
StopPoint:C4406108N,StopPoint:C4406108O,0,
StopPoint:C4410512O,StopPoint:C4410512N,0,
StopPoint:C4410512N,StopPoint:C4410512O,0,
StopPoint:C4410508O,StopPoint:C4410508N,0,
StopPoint:C4410508N,StopPoint:C4410508O,0,
StopPoint:C44Nav2442,StopPoint:C44Nav2443,2,3394111
StopPoint:C44Nav2443,StopPoint:C44Nav2442,2,3394111
StopPoint:C4425123O,StopPoint:C4425123N,2,734
StopPoint:C4425123N,StopPoint:C4425123O,2,734
StopPoint:C44Nav2233,StopPoint:C44Nav2232,0,
StopPoint:C44Nav2232,StopPoint:C44Nav2233,0,
StopPoint:C4411065O,StopPoint:C4411065N,0,
StopPoint:C4411065N,StopPoint:C4411065O,0,
StopPoint:C44Nav2589,StopPoint:C44Nav2590,0,
StopPoint:C44Nav2590,StopPoint:C44Nav2589,0,
StopPoint:C44Nav2411,StopPoint:C44Nav2416,0,
StopPoint:C44Nav2416,StopPoint:C44Nav2411,0,
StopPoint:C44Nav2557,StopPoint:C4411057N,0,
StopPoint:C4411057N,StopPoint:C44Nav2557,0,
StopPoint:C44Nav2514,StopPoint:C44Nav2513,0,
StopPoint:C44Nav2513,StopPoint:C44Nav2514,0,
StopPoint:C44Nav2348,StopPoint:C44Nav2349,0,
StopPoint:C44Nav2349,StopPoint:C44Nav2348,0,
StopPoint:C4411163N,StopPoint:C4411163O,0,
StopPoint:C4411163O,StopPoint:C4411163N,0,
StopPoint:C4410984O,StopPoint:C4410984N,0,
StopPoint:C4410984N,StopPoint:C4410984O,0,
StopPoint:C44Nav2591,StopPoint:C44Nav2588,0,
StopPoint:C44Nav2588,StopPoint:C44Nav2591,0,
StopPoint:C44Nav2419,StopPoint:C44Nav2418,0,
StopPoint:C44Nav2418,StopPoint:C44Nav2419,0,
StopPoint:C44Nav2376,StopPoint:C44Nav2381,0,
StopPoint:C44Nav2381,StopPoint:C44Nav2376,0,
StopPoint:C4411056N,StopPoint:C4411056O,0,
StopPoint:C4411056O,StopPoint:C4411056N,0,
StopPoint:C44Nav2592,StopPoint:C44Nav2587,0,
StopPoint:C44Nav2587,StopPoint:C44Nav2592,0,
StopPoint:C44Nav882,StopPoint:C44Nav913,0,
StopPoint:C44Nav913,StopPoint:C44Nav882,0,
StopPoint:C44Nav2413,StopPoint:C44Nav2414,0,
StopPoint:C44Nav2414,StopPoint:C44Nav2413,0,
StopPoint:C44Nav2676,StopPoint:C44Nav2675,0,
StopPoint:C44Nav2675,StopPoint:C44Nav2676,0,
StopPoint:C446223O,StopPoint:C446223N,0,
StopPoint:C446223N,StopPoint:C446223O,0,
StopPoint:C4411058O,StopPoint:C4411058N,0,
StopPoint:C4411058N,StopPoint:C4411058O,0,
StopPoint:C4411066N,StopPoint:C4411066O,0,
StopPoint:C4411066O,StopPoint:C4411066N,0,
StopPoint:C44Nav2412,StopPoint:C44Nav2415,0,
StopPoint:C44Nav2415,StopPoint:C44Nav2412,0,
StopPoint:C44Nav2375,StopPoint:C44Nav2380,0,
StopPoint:C44Nav2380,StopPoint:C44Nav2375,0,
StopPoint:C4425418O,StopPoint:C4425418N,0,
StopPoint:C4425418N,StopPoint:C4425418O,0,
StopPoint:C4413422O,StopPoint:C4413422N,0,
StopPoint:C4413422N,StopPoint:C4413422O,0,
StopPoint:C44Nav2230,StopPoint:C44Nav2231,0,
StopPoint:C44Nav2231,StopPoint:C44Nav2230,0,
StopPoint:C44Nav2430,StopPoint:C44Nav2429,0,
StopPoint:C44Nav2429,StopPoint:C44Nav2430,0,
StopPoint:C44Nav633,StopPoint:C44Nav630,0,
StopPoint:C44Nav630,StopPoint:C44Nav633,0,
StopPoint:C4424888N,StopPoint:C4424888O,0,
StopPoint:C4424888O,StopPoint:C4424888N,0,
StopPoint:C44Nav2406,StopPoint:C44Nav2405,0,
StopPoint:C44Nav2405,StopPoint:C44Nav2406,0,
StopPoint:C4425504O,StopPoint:C4424887N,0,
StopPoint:C4424887N,StopPoint:C4425504O,0,
StopPoint:C445461N,StopPoint:C445461O,0,
StopPoint:C445461O,StopPoint:C445461N,0,
StopPoint:C445478O,StopPoint:C445478N,0,
StopPoint:C445478N,StopPoint:C445478O,0,
StopPoint:C4425506O,StopPoint:C4425491N,0,
StopPoint:C4425491N,StopPoint:C4425506O,0,
StopPoint:C44Nav2347,StopPoint:C44Nav2336,0,
StopPoint:C44Nav2336,StopPoint:C44Nav2347,0,
StopPoint:C445698O,StopPoint:C445698N,0,
StopPoint:C445698N,StopPoint:C445698O,0,
StopPoint:C445470O,StopPoint:C445470N,0,
StopPoint:C445470N,StopPoint:C445470O,0,
StopPoint:C4405470O,StopPoint:C4405470N,0,
StopPoint:C4405470N,StopPoint:C4405470O,0,
StopPoint:C4421991O,StopPoint:C4421991N,0,
StopPoint:C4421991N,StopPoint:C4421991O,0,
StopPoint:C446868N,StopPoint:C446868O,0,
StopPoint:C446868O,StopPoint:C446868N,0,
StopPoint:C4407632N,StopPoint:C4407632O,0,
StopPoint:C4407632O,StopPoint:C4407632N,0,
StopPoint:C447590N,StopPoint:C447590O,0,
StopPoint:C447590O,StopPoint:C447590N,0,
StopPoint:C447620O,StopPoint:C447620N,0,
StopPoint:C447620N,StopPoint:C447620O,0,
StopPoint:C447474O,StopPoint:C447474N,0,
StopPoint:C447474N,StopPoint:C447474O,0,
StopPoint:C44Nav2182,StopPoint:C44Nav2183,0,
StopPoint:C44Nav2183,StopPoint:C44Nav2182,0,
StopPoint:C4424627N,StopPoint:C4424627O,0,
StopPoint:C4424627O,StopPoint:C4424627N,0,
StopPoint:C44Nav2467,StopPoint:C44Nav2444,0,
StopPoint:C44Nav2444,StopPoint:C44Nav2467,0,
StopPoint:C447492N,StopPoint:C447492O,0,
StopPoint:C447492O,StopPoint:C447492N,0,
StopPoint:C44Nav2241,StopPoint:C44Nav2240,0,
StopPoint:C44Nav2240,StopPoint:C44Nav2241,0,
StopPoint:C44Nav1503,StopPoint:C44Nav1529,0,
StopPoint:C44Nav1529,StopPoint:C44Nav1503,0,
StopPoint:C447623N,StopPoint:C4425517N,0,
StopPoint:C4425517N,StopPoint:C447623N,0,
StopPoint:C4424862N,StopPoint:C4424862O,0,
StopPoint:C4424862O,StopPoint:C4424862N,0,
StopPoint:C446867O,StopPoint:C446867N,0,
StopPoint:C446867N,StopPoint:C446867O,0,
StopPoint:C4400043O,StopPoint:C4400043N,0,
StopPoint:C4400043N,StopPoint:C4400043O,0,
StopPoint:C4411213O,StopPoint:C4411213N,0,
StopPoint:C4411213N,StopPoint:C4411213O,0,
StopPoint:C4424762O,StopPoint:C4424762N,0,
StopPoint:C4424762N,StopPoint:C4424762O,0,
StopPoint:C4411131O,StopPoint:C4411131N,0,
StopPoint:C4411131N,StopPoint:C4411131O,0,
StopPoint:C44Nav2572,StopPoint:C44Nav2571,0,
StopPoint:C44Nav2571,StopPoint:C44Nav2572,0,
StopPoint:C4424763O,StopPoint:C4424763N,0,
StopPoint:C4424763N,StopPoint:C4424763O,0,
StopPoint:C4421267N,StopPoint:C4421267O,0,
StopPoint:C4421267O,StopPoint:C4421267N,0,
StopPoint:C44Nav2044,StopPoint:C44Nav1948,0,
StopPoint:C44Nav1948,StopPoint:C44Nav2044,0,
StopPoint:C4423627N,StopPoint:C4423627O,0,
StopPoint:C4423627O,StopPoint:C4423627N,0,
StopPoint:C445743N,StopPoint:C445743O,0,
StopPoint:C445743O,StopPoint:C445743N,0,
StopPoint:C445539O,StopPoint:C445539N,0,
StopPoint:C445539N,StopPoint:C445539O,0,
StopPoint:C4405533O,StopPoint:C4405533N,0,
StopPoint:C4405533N,StopPoint:C4405533O,0,
StopPoint:C4403523N,StopPoint:C4403523O,0,
StopPoint:C4403523O,StopPoint:C4403523N,0,
StopPoint:C443523O,StopPoint:C443523N,0,
StopPoint:C443523N,StopPoint:C443523O,0,
StopPoint:C44Nav2341,StopPoint:C4424780N,0,
StopPoint:C4424780N,StopPoint:C44Nav2341,0,
StopPoint:C4412038N,StopPoint:C4425492O,0,
StopPoint:C4425492O,StopPoint:C4412038N,0,
StopPoint:C4414751O,StopPoint:C4425489O,0,
StopPoint:C4425489O,StopPoint:C4414751O,0,
StopPoint:C44Nav1910,StopPoint:C44Nav2083,0,
StopPoint:C44Nav2083,StopPoint:C44Nav1910,0,
StopPoint:C44tp13N,StopPoint:C44Nav2340,0,
StopPoint:C44Nav2340,StopPoint:C44tp13N,0,
StopPoint:C4411991N,StopPoint:C4425490O,0,
StopPoint:C4425490O,StopPoint:C4411991N,0,
StopPoint:C4422201O,StopPoint:C4422201N,0,
StopPoint:C4422201N,StopPoint:C4422201O,0,
StopPoint:C44Nav2338,StopPoint:C44tp14N,0,
StopPoint:C44tp14N,StopPoint:C44Nav2338,0,
StopPoint:C4400749N,StopPoint:C4400749O,0,
StopPoint:C4400749O,StopPoint:C4400749N,0,
StopPoint:C44Nav2393,StopPoint:C44Nav2395,0,
StopPoint:C44Nav2395,StopPoint:C44Nav2393,0,
StopPoint:C4422266N,StopPoint:C4422266O,0,
StopPoint:C4422266O,StopPoint:C4422266N,0,
StopPoint:C44Nav2344,StopPoint:C44Nav2345,0,
StopPoint:C44Nav2345,StopPoint:C44Nav2344,0,
StopPoint:C4413673N,StopPoint:C4413673O,0,
StopPoint:C4413673O,StopPoint:C4413673N,0,
StopPoint:C4400195N,StopPoint:C4400195O,0,
StopPoint:C4400195O,StopPoint:C4400195N,0,
StopPoint:C44Nav2433,StopPoint:C44Nav2432,0,
StopPoint:C44Nav2432,StopPoint:C44Nav2433,0,
StopPoint:C4410097N,StopPoint:C4410097O,0,
StopPoint:C4410097O,StopPoint:C4410097N,0,
StopPoint:C44Nav2716,StopPoint:C44Nav2717,0,
StopPoint:C44Nav2717,StopPoint:C44Nav2716,0,
StopPoint:C44Nav2712,StopPoint:C44Nav2709,0,
StopPoint:C44Nav2709,StopPoint:C44Nav2712,0,
StopPoint:C4412396O,StopPoint:C4412396N,0,
StopPoint:C4412396N,StopPoint:C4412396O,0,
StopPoint:C4412400O,StopPoint:C4412400N,0,
StopPoint:C4412400N,StopPoint:C4412400O,0,
StopPoint:C44Nav2605,StopPoint:C44Nav2686,0,
StopPoint:C44Nav2686,StopPoint:C44Nav2605,0,
StopPoint:C4412410O,StopPoint:C4412410N,0,
StopPoint:C4412410N,StopPoint:C4412410O,0,
StopPoint:C4404368O,StopPoint:C4404368N,0,
StopPoint:C4404368N,StopPoint:C4404368O,0,
StopPoint:C4424930O,StopPoint:C4424930N,0,
StopPoint:C4424930N,StopPoint:C4424930O,0,
StopPoint:C4411789O,StopPoint:C4411789N,0,
StopPoint:C4411789N,StopPoint:C4411789O,0,
StopPoint:C4423637N,StopPoint:C4423637O,0,
StopPoint:C4423637O,StopPoint:C4423637N,0,
StopPoint:C4422992O,StopPoint:C4422992N,0,
StopPoint:C4422992N,StopPoint:C4422992O,0,
StopPoint:C44Nav1805,StopPoint:C44Nav1795,0,
StopPoint:C44Nav1795,StopPoint:C44Nav1805,0,
StopPoint:C44Nav2687,StopPoint:C44Nav2606,0,
StopPoint:C44Nav2606,StopPoint:C44Nav2687,0,
StopPoint:C44Nav2468,StopPoint:C44Nav2480,0,
StopPoint:C44Nav2480,StopPoint:C44Nav2468,0,
StopPoint:C4422292N,StopPoint:C4422292O,0,
StopPoint:C4422292O,StopPoint:C4422292N,0,
StopPoint:C441539O,StopPoint:C441539N,0,
StopPoint:C441539N,StopPoint:C441539O,0,
StopPoint:C4412702N,StopPoint:C4412702O,0,
StopPoint:C4412702O,StopPoint:C4412702N,0,
StopPoint:C4412975O,StopPoint:C4412975N,0,
StopPoint:C4412975N,StopPoint:C4412975O,0,
StopPoint:C4407570O,StopPoint:C4407570N,0,
StopPoint:C4407570N,StopPoint:C4407570O,0,
StopPoint:C4413102N,StopPoint:C4413102O,0,
StopPoint:C4413102O,StopPoint:C4413102N,0,
StopPoint:C4403221O,StopPoint:C4403221N,0,
StopPoint:C4403221N,StopPoint:C4403221O,0,
StopPoint:C44Nav2600,StopPoint:C44Nav2601,0,
StopPoint:C44Nav2601,StopPoint:C44Nav2600,0,
StopPoint:C4413252N,StopPoint:C4413252O,0,
StopPoint:C4413252O,StopPoint:C4413252N,0,
StopPoint:C4412201N,StopPoint:C4412201O,0,
StopPoint:C4412201O,StopPoint:C4412201N,0,
StopPoint:C4413247O,StopPoint:C4413247N,0,
StopPoint:C4413247N,StopPoint:C4413247O,0,
StopPoint:C44Nav2266,StopPoint:C44Nav2267,0,
StopPoint:C44Nav2267,StopPoint:C44Nav2266,0,
StopPoint:C4412190O,StopPoint:C4412190N,0,
StopPoint:C4412190N,StopPoint:C4412190O,0,
StopPoint:C4412304N,StopPoint:C4412304O,0,
StopPoint:C4412304O,StopPoint:C4412304N,0,
StopPoint:C4413245O,StopPoint:C4413245N,0,
StopPoint:C4413245N,StopPoint:C4413245O,0,
StopPoint:C4412206O,StopPoint:C4412206N,0,
StopPoint:C4412206N,StopPoint:C4412206O,0,
StopPoint:C4412280N,StopPoint:C4412280O,0,
StopPoint:C4412280O,StopPoint:C4412280N,0,
StopPoint:C4424837O,StopPoint:C4424837N,0,
StopPoint:C4424837N,StopPoint:C4424837O,0,
StopPoint:C4412286N,StopPoint:C4412286O,0,
StopPoint:C4412286O,StopPoint:C4412286N,0,
StopPoint:C4413241O,StopPoint:C4413241N,0,
StopPoint:C4413241N,StopPoint:C4413241O,0,
StopPoint:C4412264N,StopPoint:C4412264O,0,
StopPoint:C4412264O,StopPoint:C4412264N,0,
StopPoint:C4413251O,StopPoint:C4413251N,0,
StopPoint:C4413251N,StopPoint:C4413251O,0,
StopPoint:C4412287O,StopPoint:C4412287N,0,
StopPoint:C4412287N,StopPoint:C4412287O,0,
StopPoint:C4422501N,StopPoint:C4422501O,0,
StopPoint:C4422501O,StopPoint:C4422501N,0,
StopPoint:C44Nav2544,StopPoint:C44Nav2541,0,
StopPoint:C44Nav2541,StopPoint:C44Nav2544,0,
StopPoint:C4424912N,StopPoint:C4424912O,0,
StopPoint:C4424912O,StopPoint:C4424912N,0,
StopPoint:C44Nav2542,StopPoint:C44Nav2543,0,
StopPoint:C44Nav2543,StopPoint:C44Nav2542,0,
StopPoint:C44Nav2248,StopPoint:C44Nav2234,0,
StopPoint:C44Nav2234,StopPoint:C44Nav2248,0,
StopPoint:C4410314N,StopPoint:C4410314O,0,
StopPoint:C4410314O,StopPoint:C4410314N,0,
StopPoint:C4410333N,StopPoint:C4410333O,0,
StopPoint:C4410333O,StopPoint:C4410333N,0,
StopPoint:C4410279O,StopPoint:C4410279N,0,
StopPoint:C4410279N,StopPoint:C4410279O,0,
StopPoint:C4410366O,StopPoint:C4410366N,0,
StopPoint:C4410366N,StopPoint:C4410366O,0,
StopPoint:C4410359O,StopPoint:C4410359N,0,
StopPoint:C4410359N,StopPoint:C4410359O,0,
StopPoint:C4410367O,StopPoint:C4410367N,0,
StopPoint:C4410367N,StopPoint:C4410367O,0,
StopPoint:C4410310O,StopPoint:C4410310N,0,
StopPoint:C4410310N,StopPoint:C4410310O,0,
StopPoint:C4410346N,StopPoint:C4410346O,0,
StopPoint:C4410346O,StopPoint:C4410346N,0,
StopPoint:C4410353O,StopPoint:C4410353N,0,
StopPoint:C4410353N,StopPoint:C4410353O,0,
StopPoint:C4410348N,StopPoint:C4410348O,0,
StopPoint:C4410348O,StopPoint:C4410348N,0,
StopPoint:C4410351N,StopPoint:C4410351O,0,
StopPoint:C4410351O,StopPoint:C4410351N,0,
StopPoint:C4410350N,StopPoint:C4410350O,0,
StopPoint:C4410350O,StopPoint:C4410350N,0,
StopPoint:C4410313O,StopPoint:C4410313N,0,
StopPoint:C4410313N,StopPoint:C4410313O,0,
StopPoint:C4424856O,StopPoint:C4424856N,0,
StopPoint:C4424856N,StopPoint:C4424856O,0,
StopPoint:C4409846N,StopPoint:C4409846O,0,
StopPoint:C4409846O,StopPoint:C4409846N,0,
StopPoint:C4422446N,StopPoint:C4422446O,0,
StopPoint:C4422446O,StopPoint:C4422446N,0,
StopPoint:C449624O,StopPoint:C449624N,0,
StopPoint:C449624N,StopPoint:C449624O,0,
StopPoint:C449836N,StopPoint:C449836O,0,
StopPoint:C449836O,StopPoint:C449836N,0,
StopPoint:C44Nav1938,StopPoint:C4425504N,0,
StopPoint:C4425504N,StopPoint:C44Nav1938,0,
StopPoint:C44Nav2220,StopPoint:C44Nav2229,0,
StopPoint:C44Nav2229,StopPoint:C44Nav2220,0,
StopPoint:C4409834N,StopPoint:C4409834O,0,
StopPoint:C4409834O,StopPoint:C4409834N,0,
StopPoint:C44Nav1939,StopPoint:C4425506N,0,
StopPoint:C4425506N,StopPoint:C44Nav1939,0,
StopPoint:C44Nav1317,StopPoint:C44Nav2181,0,
StopPoint:C44Nav2181,StopPoint:C44Nav1317,0,
StopPoint:C4425435O,StopPoint:C4425435N,0,
StopPoint:C4425435N,StopPoint:C4425435O,0,
StopPoint:C4422576N,StopPoint:C4422576O,0,
StopPoint:C4422576O,StopPoint:C4422576N,0,
StopPoint:C449009O,StopPoint:C449009N,0,
StopPoint:C449009N,StopPoint:C449009O,0,
StopPoint:C44Nav1721,StopPoint:C44Nav1720,0,
StopPoint:C44Nav1720,StopPoint:C44Nav1721,0,
StopPoint:C4408275O,StopPoint:C4408275N,0,
StopPoint:C4408275N,StopPoint:C4408275O,0,
StopPoint:C4412012O,StopPoint:C4412012N,0,
StopPoint:C4412012N,StopPoint:C4412012O,0,
StopPoint:C4411800N,StopPoint:C4411800O,0,
StopPoint:C4411800O,StopPoint:C4411800N,0,
StopPoint:C4425491O,StopPoint:C4412024N,0,
StopPoint:C4412024N,StopPoint:C4425491O,0,
StopPoint:C4411990O,StopPoint:C4411990N,0,
StopPoint:C4411990N,StopPoint:C4411990O,0,
StopPoint:C44Nav2196,StopPoint:C44Nav2219,0,
StopPoint:C44Nav2219,StopPoint:C44Nav2196,0,
StopPoint:C4415296O,StopPoint:C4415296N,0,
StopPoint:C4415296N,StopPoint:C4415296O,0,
StopPoint:C44Nav2210,StopPoint:C44Nav2224,0,
StopPoint:C44Nav2224,StopPoint:C44Nav2210,0,
StopPoint:C4412019N,StopPoint:C4412019O,0,
StopPoint:C4412019O,StopPoint:C4412019N,0,
StopPoint:C4411806O,StopPoint:C4411806N,0,
StopPoint:C4411806N,StopPoint:C4411806O,0,
StopPoint:C4411813O,StopPoint:C4411813N,0,
StopPoint:C4411813N,StopPoint:C4411813O,0,
StopPoint:C4412001O,StopPoint:C4412001N,0,
StopPoint:C4412001N,StopPoint:C4412001O,0,
StopPoint:C4412032N,StopPoint:C4412032O,0,
StopPoint:C4412032O,StopPoint:C4412032N,0,
StopPoint:C4411808N,StopPoint:C4411808O,0,
StopPoint:C4411808O,StopPoint:C4411808N,0,
StopPoint:C4411831N,StopPoint:C4411831O,0,
StopPoint:C4411831O,StopPoint:C4411831N,0,
StopPoint:C44Nav2225,StopPoint:C44Nav2209,0,
StopPoint:C44Nav2209,StopPoint:C44Nav2225,0,
StopPoint:C4411839O,StopPoint:C4411839N,0,
StopPoint:C4411839N,StopPoint:C4411839O,0,
StopPoint:C44Nav2718,StopPoint:C44Nav2715,0,
StopPoint:C44Nav2715,StopPoint:C44Nav2718,0,
StopPoint:C4424124N,StopPoint:C4424124O,0,
StopPoint:C4424124O,StopPoint:C4424124N,0,
StopPoint:C4422764O,StopPoint:C4422764N,1,
StopPoint:C4422764N,StopPoint:C4422764O,1,
StopPoint:C4424834O,StopPoint:C4424834N,0,
StopPoint:C4424834N,StopPoint:C4424834O,0,
StopPoint:C4415129N,StopPoint:C4415129O,0,
StopPoint:C4415129O,StopPoint:C4415129N,0,
StopPoint:C4408141N,StopPoint:C4408141O,0,
StopPoint:C4408141O,StopPoint:C4408141N,0,
StopPoint:C4408145O,StopPoint:C4408145N,0,
StopPoint:C4408145N,StopPoint:C4408145O,0,
StopPoint:C4402672N,StopPoint:C442672O,0,
StopPoint:C442672O,StopPoint:C4402672N,0,
StopPoint:C44Nav582,StopPoint:C44Nav578,0,
StopPoint:C44Nav578,StopPoint:C44Nav582,0,
StopPoint:C44Nav2270,StopPoint:C44Nav2271,0,
StopPoint:C44Nav2271,StopPoint:C44Nav2270,0,
StopPoint:C4415729O,StopPoint:C4415729N,0,
StopPoint:C4415729N,StopPoint:C4415729O,0,
StopPoint:C44Nav2356,StopPoint:C44Nav2353,0,
StopPoint:C44Nav2353,StopPoint:C44Nav2356,0,
StopPoint:C44Nav982,StopPoint:C44Nav995,0,
StopPoint:C44Nav995,StopPoint:C44Nav982,0,
StopPoint:C44Nav983,StopPoint:C44Nav994,0,
StopPoint:C44Nav994,StopPoint:C44Nav983,0,
StopPoint:C44Nav2526,StopPoint:C44Nav2527,0,
StopPoint:C44Nav2527,StopPoint:C44Nav2526,0,
StopPoint:C44Nav2352,StopPoint:C44Nav2357,0,
StopPoint:C44Nav2357,StopPoint:C44Nav2352,0,
StopPoint:C4425256O,StopPoint:C4415709O,0,
StopPoint:C4415709O,StopPoint:C4425256O,0,
StopPoint:C44Nav980,StopPoint:C44Nav1443,0,
StopPoint:C44Nav1443,StopPoint:C44Nav980,0,
StopPoint:C44Nav84,StopPoint:C44Nav78,0,
StopPoint:C44Nav78,StopPoint:C44Nav84,0,
